<?xml version="1.0" encoding="UTF-8" standalone="no"?>
<svg
   xmlns:dc="http://purl.org/dc/elements/1.1/"
   xmlns:cc="http://creativecommons.org/ns#"
   xmlns:rdf="http://www.w3.org/1999/02/22-rdf-syntax-ns#"
   xmlns:svg="http://www.w3.org/2000/svg"
   xmlns="http://www.w3.org/2000/svg"
   xmlns:xlink="http://www.w3.org/1999/xlink"
   xmlns:sodipodi="http://sodipodi.sourceforge.net/DTD/sodipodi-0.dtd"
   xmlns:inkscape="http://www.inkscape.org/namespaces/inkscape"
   id="svg4289"
   version="1.1"
   inkscape:version="1.0.1 (3bc2e813f5, 2020-09-07)"
   width="225.19377"
   height="50.492165"
   viewBox="0 0 225.19377 50.492165"
   sodipodi:docname="logo_onera.svg"
   inkscape:export-filename="/home/hylkema/Projects/org-presentation/CSS/Logos/onera.png"
   inkscape:export-xdpi="70.175438"
   inkscape:export-ydpi="70.175438">
  <metadata
     id="metadata4295">
    <rdf:RDF>
      <cc:Work
         rdf:about="">
        <dc:format>image/svg+xml</dc:format>
        <dc:type
           rdf:resource="http://purl.org/dc/dcmitype/StillImage" />
        <dc:title></dc:title>
      </cc:Work>
    </rdf:RDF>
  </metadata>
  <defs
     id="defs4293">
    <font
       horiz-adv-x="1024"
       id="font5786"
       inkscape:label="font 1"
       horiz-origin-x="0"
       horiz-origin-y="0"
       vert-origin-x="45"
       vert-origin-y="90"
       vert-adv-y="90">
      <font-face
         units-per-em="1024"
         id="font-face5788"
         font-family="SVGFont 1" />
      <missing-glyph
         d="M0,0h1000v1024h-1000z"
         id="missing-glyph5790" />
    </font>
  </defs>
  <sodipodi:namedview
     pagecolor="#ffffff"
     bordercolor="#666666"
     borderopacity="1"
     objecttolerance="10"
     gridtolerance="10"
     guidetolerance="10"
     inkscape:pageopacity="0"
     inkscape:pageshadow="2"
     inkscape:window-width="1920"
     inkscape:window-height="1006"
     id="namedview4291"
     showgrid="false"
     inkscape:zoom="2.922708"
     inkscape:cx="46.094129"
     inkscape:cy="8.6971969"
     inkscape:window-x="0"
     inkscape:window-y="25"
     inkscape:window-maximized="1"
     inkscape:current-layer="layer2"
     inkscape:document-rotation="0"
     fit-margin-top="0"
     fit-margin-left="0"
     fit-margin-right="0"
     fit-margin-bottom="0" />
  <g
     inkscape:groupmode="layer"
     id="layer2"
     inkscape:label="image"
     style="display:none"
     sodipodi:insensitive="true"
     transform="translate(-7.3820728,-8.6201451)">
    <image
       width="240"
       height="68.400002"
       preserveAspectRatio="none"
       style="image-rendering:optimizeQuality"
       xlink:href="data:image/png;base64,iVBORw0KGgoAAAANSUhEUgAAAyAAAADkCAIAAADvg9cAAAAKT2lDQ1BQaG90b3Nob3AgSUNDIHBy b2ZpbGUAAHjanVNnVFPpFj333vRCS4iAlEtvUhUIIFJCi4AUkSYqIQkQSoghodkVUcERRUUEG8ig iAOOjoCMFVEsDIoK2AfkIaKOg6OIisr74Xuja9a89+bN/rXXPues852zzwfACAyWSDNRNYAMqUIe EeCDx8TG4eQuQIEKJHAAEAizZCFz/SMBAPh+PDwrIsAHvgABeNMLCADATZvAMByH/w/qQplcAYCE AcB0kThLCIAUAEB6jkKmAEBGAYCdmCZTAKAEAGDLY2LjAFAtAGAnf+bTAICd+Jl7AQBblCEVAaCR ACATZYhEAGg7AKzPVopFAFgwABRmS8Q5ANgtADBJV2ZIALC3AMDOEAuyAAgMADBRiIUpAAR7AGDI IyN4AISZABRG8lc88SuuEOcqAAB4mbI8uSQ5RYFbCC1xB1dXLh4ozkkXKxQ2YQJhmkAuwnmZGTKB NA/g88wAAKCRFRHgg/P9eM4Ors7ONo62Dl8t6r8G/yJiYuP+5c+rcEAAAOF0ftH+LC+zGoA7BoBt /qIl7gRoXgugdfeLZrIPQLUAoOnaV/Nw+H48PEWhkLnZ2eXk5NhKxEJbYcpXff5nwl/AV/1s+X48 /Pf14L7iJIEyXYFHBPjgwsz0TKUcz5IJhGLc5o9H/LcL//wd0yLESWK5WCoU41EScY5EmozzMqUi iUKSKcUl0v9k4t8s+wM+3zUAsGo+AXuRLahdYwP2SycQWHTA4vcAAPK7b8HUKAgDgGiD4c93/+8/ /UegJQCAZkmScQAAXkQkLlTKsz/HCAAARKCBKrBBG/TBGCzABhzBBdzBC/xgNoRCJMTCQhBCCmSA HHJgKayCQiiGzbAdKmAv1EAdNMBRaIaTcA4uwlW4Dj1wD/phCJ7BKLyBCQRByAgTYSHaiAFiilgj jggXmYX4IcFIBBKLJCDJiBRRIkuRNUgxUopUIFVIHfI9cgI5h1xGupE7yAAygvyGvEcxlIGyUT3U DLVDuag3GoRGogvQZHQxmo8WoJvQcrQaPYw2oefQq2gP2o8+Q8cwwOgYBzPEbDAuxsNCsTgsCZNj y7EirAyrxhqwVqwDu4n1Y8+xdwQSgUXACTYEd0IgYR5BSFhMWE7YSKggHCQ0EdoJNwkDhFHCJyKT qEu0JroR+cQYYjIxh1hILCPWEo8TLxB7iEPENyQSiUMyJ7mQAkmxpFTSEtJG0m5SI+ksqZs0SBoj k8naZGuyBzmULCAryIXkneTD5DPkG+Qh8lsKnWJAcaT4U+IoUspqShnlEOU05QZlmDJBVaOaUt2o oVQRNY9aQq2htlKvUYeoEzR1mjnNgxZJS6WtopXTGmgXaPdpr+h0uhHdlR5Ol9BX0svpR+iX6AP0 dwwNhhWDx4hnKBmbGAcYZxl3GK+YTKYZ04sZx1QwNzHrmOeZD5lvVVgqtip8FZHKCpVKlSaVGyov VKmqpqreqgtV81XLVI+pXlN9rkZVM1PjqQnUlqtVqp1Q61MbU2epO6iHqmeob1Q/pH5Z/YkGWcNM w09DpFGgsV/jvMYgC2MZs3gsIWsNq4Z1gTXEJrHN2Xx2KruY/R27iz2qqaE5QzNKM1ezUvOUZj8H 45hx+Jx0TgnnKKeX836K3hTvKeIpG6Y0TLkxZVxrqpaXllirSKtRq0frvTau7aedpr1Fu1n7gQ5B x0onXCdHZ4/OBZ3nU9lT3acKpxZNPTr1ri6qa6UbobtEd79up+6Ynr5egJ5Mb6feeb3n+hx9L/1U /W36p/VHDFgGswwkBtsMzhg8xTVxbzwdL8fb8VFDXcNAQ6VhlWGX4YSRudE8o9VGjUYPjGnGXOMk 423GbcajJgYmISZLTepN7ppSTbmmKaY7TDtMx83MzaLN1pk1mz0x1zLnm+eb15vft2BaeFostqi2 uGVJsuRaplnutrxuhVo5WaVYVVpds0atna0l1rutu6cRp7lOk06rntZnw7Dxtsm2qbcZsOXYBtuu tm22fWFnYhdnt8Wuw+6TvZN9un2N/T0HDYfZDqsdWh1+c7RyFDpWOt6azpzuP33F9JbpL2dYzxDP 2DPjthPLKcRpnVOb00dnF2e5c4PziIuJS4LLLpc+Lpsbxt3IveRKdPVxXeF60vWdm7Obwu2o26/u Nu5p7ofcn8w0nymeWTNz0MPIQ+BR5dE/C5+VMGvfrH5PQ0+BZ7XnIy9jL5FXrdewt6V3qvdh7xc+ 9j5yn+M+4zw33jLeWV/MN8C3yLfLT8Nvnl+F30N/I/9k/3r/0QCngCUBZwOJgUGBWwL7+Hp8Ib+O PzrbZfay2e1BjKC5QRVBj4KtguXBrSFoyOyQrSH355jOkc5pDoVQfujW0Adh5mGLw34MJ4WHhVeG P45wiFga0TGXNXfR3ENz30T6RJZE3ptnMU85ry1KNSo+qi5qPNo3ujS6P8YuZlnM1VidWElsSxw5 LiquNm5svt/87fOH4p3iC+N7F5gvyF1weaHOwvSFpxapLhIsOpZATIhOOJTwQRAqqBaMJfITdyWO CnnCHcJnIi/RNtGI2ENcKh5O8kgqTXqS7JG8NXkkxTOlLOW5hCepkLxMDUzdmzqeFpp2IG0yPTq9 MYOSkZBxQqohTZO2Z+pn5mZ2y6xlhbL+xW6Lty8elQfJa7OQrAVZLQq2QqboVFoo1yoHsmdlV2a/ zYnKOZarnivN7cyzytuQN5zvn//tEsIS4ZK2pYZLVy0dWOa9rGo5sjxxedsK4xUFK4ZWBqw8uIq2 Km3VT6vtV5eufr0mek1rgV7ByoLBtQFr6wtVCuWFfevc1+1dT1gvWd+1YfqGnRs+FYmKrhTbF5cV f9go3HjlG4dvyr+Z3JS0qavEuWTPZtJm6ebeLZ5bDpaql+aXDm4N2dq0Dd9WtO319kXbL5fNKNu7 g7ZDuaO/PLi8ZafJzs07P1SkVPRU+lQ27tLdtWHX+G7R7ht7vPY07NXbW7z3/T7JvttVAVVN1WbV ZftJ+7P3P66Jqun4lvttXa1ObXHtxwPSA/0HIw6217nU1R3SPVRSj9Yr60cOxx++/p3vdy0NNg1V jZzG4iNwRHnk6fcJ3/ceDTradox7rOEH0x92HWcdL2pCmvKaRptTmvtbYlu6T8w+0dbq3nr8R9sf D5w0PFl5SvNUyWna6YLTk2fyz4ydlZ19fi753GDborZ752PO32oPb++6EHTh0kX/i+c7vDvOXPK4 dPKy2+UTV7hXmq86X23qdOo8/pPTT8e7nLuarrlca7nuer21e2b36RueN87d9L158Rb/1tWeOT3d vfN6b/fF9/XfFt1+cif9zsu72Xcn7q28T7xf9EDtQdlD3YfVP1v+3Njv3H9qwHeg89HcR/cGhYPP /pH1jw9DBY+Zj8uGDYbrnjg+OTniP3L96fynQ89kzyaeF/6i/suuFxYvfvjV69fO0ZjRoZfyl5O/ bXyl/erA6xmv28bCxh6+yXgzMV70VvvtwXfcdx3vo98PT+R8IH8o/2j5sfVT0Kf7kxmTk/8EA5jz /GMzLdsAAAAGYktHRAD/AP8A/6C9p5MAAAAJcEhZcwAALiMAAC4jAXilP3YAAAAHdElNRQffDBgL LARN6NZ9AAAgAElEQVR42uydd5iV1bX/19r7bafNnGEAQUBQsItKMSjkkhhijVHCTUywozEa742K MbafUWOJMRoLMUZjSSyoiS02rIgFwaiIem0gVXqbdspb916/P/aZw8SSIEHmDKzPw+MzM845s/d+ 99nv910ViQgYhmEYhmGYTYfgJWAYhmEYhmGBxTAMwzAMwwKLYRiGYRiGBRbDMAzDMAzDAothGIZh GIYFFsMwDMMwDAsshmEYhmEYhgUWwzAMwzAMCyyGYRiGYRgWWAzDMAzDMAwLLIZhGIZhGBZYDMMw DMMwLLAYhmEYhmFYYDEMwzAMwzAssBiGYRiGYVhgMQzDMAzDsMBiGIZhGIZhWGAxDMMwDMOwwGIY hmEYhmGBxTAMwzAMw7DAYhiGYRiGYYHFMAzDMAzDAothGIZhGIZhgcUwDMMwDMMCi2EYhmEYhgUW wzAMwzAMCyyGYRiGYRiGBRbDMAzDMEwNYvESMLVJFEUL5i9YtXL1hx9+2NraCgANDQ17DN599z12 r6urQ0ReIobZmgnD0HVdXgeGBRbDfD5a68mTJ0+b+uLatWuXLVvW3NwcRRERRVEUBIFlOUmSAAAi CiGMrrIsCyV4npdOp/P5fJ8+fQYMGHD00UcNHTqky03/rLPOKpfLN998M+8EhtlwzjnnnFtuucU8 ejFMbYJExKvAbP5Hz1/84tx33313yZIlLS0tYRhKtKSUlmVJKc3vCCGEEEREREIIrbWRWeZbpRQA KKW01lrrOI4BIJVKdetev/POO++7777nnXdel1iK884776qrrjrooIOefvrp2h/tdtttlySJZVlE qLUWQsRxTEQrViwT4iuPN7jyyiuvvvp3nudJKbXWRnNv2hMMkcwEtdae582bN28zrOrIkSMXLFgk hJBSmkeI6qTMVrdt23EcIpJSep7nOE42m25oaOjRo0evXr1OOeWUXr16bW1nSGNjo1Jq2LBhU6dO 5ROVqU3YgsVsPt57773LL71y1qxZTU1NcRxLKR3H8ZyU56SMkDK3TK01dcAIKfMO5tuq2BJC2LaN iOYnRNS6tvDKsldfeO7la6+5oV+/fvuN2vfGGyfV8pqQgvpcfuarr++2y+BZb72eSqdqebRBOQQQ OlEAGlEqSgAwCqPN47GNYxX6kWO5OkmM+IiS0LKs6uYxuyJJEqPAzLdf8nqgEFaUqDiObelsnlVV iuIwkVKiLaIoNFK1qh0RMYmCctE3O9woSyJSSimliOiG6260bbu+vr5fv36Ddh501sQzdt555y37 JBm69zCdUDaTe+2118899/yrrrqST1emBuEgd2ZzcPzxE3bfffCIEfs988wzLS0trutmMplcLlc1 RSCisV0lSYKItm1LKc0tpHqnrGJuM8ZjmCRJkiTVJ35EtF03V5d1XXfp0qV33XVXr17bDh/+tUsv vbxGP4FCAEA+n1+xYsXAHXa68MKLavk6Vh21n2XzDEBKaSw9xthjTJ7GtGM2htlIxvwpvxjxBSAi gbYsK5VyzcbbbAtrJpJKpUxckfkUWJZlJmJZlmVZtm27rus4juM4qVSqrq4um83ati2EaGlpefvt t/96//0jRuy33XYDxow54Nprr91SD5OFCxdms1kiqquru/XWW9kPw7DAYrY65s+fv//+Y3r27PXI I4+sW7cun8+n01467QkBRCpJIgDtOJZSMZFSKjb/fL+0bt2adevW+H4pioIw9M1/y+Wi75fK5WJr a7PvlwqFVt8vIZJlCa0TpWIhACQKWVFgnuflcjmt9bJly6655prttx940kkn16BkMbIgm80qpW6c 9PvDDzuilgXW52qszTmG6t20arUCAERCJAANoIUA84Ux9HzuP/MLn/2HAozQj+PY+J0328Iav2Qc x0mSGGkVhqHZ2ESqOjvzwTHbxiyFEMLoLdd1M6lsJpVVcfLu2+/86uJL+/XZ7vhjT9iSjpSmdU1P Pv5EKpVSSkkpBaAl5F57DeHDlqlB2EXIfCX4Zf/ggw556623UqmUlDKXyUopk0QLgVEUCSE8z0uS JIoi81+UwnXd+oZ87969+/bt27179969e4/+r6/vuedg23EcxwGAKIqWLl36+utvzpkzZ9WqVatW rVqyZMnatWvb2tqiKHIchxAkWsYUEYahUsqyhGPZSZLkMnVB2X/ogQefnvLUwQcffPufb6uRhTIq IYoiAHBd17blSy+9tPeeQ2a/81ZtZkp+alTV2/zmVFfV/xocx2ltbbYsSylVFazGMroRz5yIFe9b Q2O3zTyvqhHXzMW27XJQMjZdRFRKGWuWUgqDwBi9jK03DH0i8jwvSTQAKEWIMperTxL1yCOPPtOz z3e+c0jt7Pn/hH1H7GesegAQRYllCdd1P1m0+Oijj508+W4+eBkWWMwWztix41556WWlVH19vblh EGEcK9u2iZS5ebS1tSVJks1mBw4cuMcee5x8ysn/NgfQdd2BAwcOHDjwszen66+f9Nprr82ePbtp 7bowDNPptInNShIthLAsR2sthNXQ0BgE5QcffHDatGnf//73f3vNVZ2+VuZebtxDURRJiXV1dUuX Lt22V59TT/vpxRf/stYubke70b/+4VdENTjJhOtprbPZ7CvTX+zTt4+xXGqlhRSfKwc/awb7LFpp aUkAUInazDuh6ihXSiVJMmrUqAcf+qvSCgC01kuXLp07Z+6KFStXrV699JMl69atW7p06erVq9va 2sIwFEJEUSRI2LbtSCtJEp0oiZjP1Sml/va3v82YMeOJJx8fOGhg1z1Yjh5/zOrVq+vr64MgchxH StRaJUmSy+X+/vAj8+fP/+zhwDAssJgthEsuufSO2//S0tKSzaQ65ABaxq8UhiFKKBaL6XR6yLCh hx122MSJZ2wSm8rEiWcAVN7qf//39FdeeWXxwkVCCNdNSSlNQH0cx4hoWU5dnVUoFG6//fbnnntu 9jtvde6KmZAgE2pmbq5SykwmEwTBDddd/+677z700AM1qLE+ZdDqFGOb+aPGF9x/QP9N/weczbqk xuqmtTZPIFEU7bbbbkKKqlj83KcLw9133zNlylNvvPHG6pWrTO6IbbsoZBzHjiXNo8W6dc3Dhg4/ 44wzfnXZJV3xbLlv8v2PPfZYt27doihxHCcMQ0dahMK2ba11Lpf79rcOWLh4AR/CTO3AMVjMJuPb 3z7wumtvKJVK+Xy+Q3BMJXo3DMM4juvr6ydMmLB69cqpU5/bJOrqs9x446R33pm9eMmi0aNHG1OZ hcIMo3pLdl3Xdd3ly5fn8/nzzz+/ExfNBPpUS3whYhBEcRx7nud53nPPPDts2D61dqE/FXrVWTFY 1Xy6LSDG2RQfqYbqG3PUhgeBHXvsMffdN3nevLnTXnxhxIgRcRyXSgUhwLZtsz7G7ZjL1f/ud7/7 +cSzu+ISXXjhhZlMxgQYCCEyXqo93RiVUq7rNjU1HXrwd/gcZlhgMVsUcRzvtNMub7zxRl1dned5 JqIoSRIhBKJUShWLxcbGxp/97Gdz5nz4+9/fsBmGVF9f//fHHlm9dsX3vzcujuNCoWBKCimlAIRx xyBiOp2eNGnSIYcc0llLZ1mWWUCTUNmeB2cHQSCEyGQy8+fP79mz12231VYATVXWdKymsTkOLCGq Cs+slQlO6uqfIMuyTDKskVYAsHE1yocNH/b0s0+tXL1ih0ED24oFEEQAqj0PV2vd0NBwxx133Df5 3q61Pocd+t21a9dKKaW0AQCUTpLEcRyzH2zbDcMwn8/PmDHjoosu4QOZYYHFbCHccfufe/XatrW5 paG+GxAJTTaKONGul04UlYMSCDrp5BM+mvv+ry7rhBoEt91568p1K/YdOaJQajM5WVKiEJZSZFmO RKd7t21mTP/Hnnvu3VnWIFNlwBSeEASoiRIlpU2EWkM2nRMgzz7r3GOOOr52LnpH89XmtGB1VHVm 6aCTHJSbGKUtFCaGzPi8/hPV6DjOrFlvHHbYYYVCQVOCouJ/FEIoRbbtXnDBRV1obX7zm99Of2l6 XaYOFJgnNxIUqSiIA0EgSCsVW5YVRVG2LnfrrbfymcywwGK2BK666uqJZ53leZ7JKo/jGC0JAJ7n lcvlUqk0dOjQ5cuXXnfddZ07zqefnnL/ffem0+koirTWWpty5KSUiuM4n88vWbJkhx0G1Yh2Qavi zUyn08a4VVdX9+ijjw4bMpy3HLOB3HPPXUceeWS5XF6v4pQyNbTWrFlz9PjjuspErrvuulwuJ4QA KQDAcaxisfhf//VfP/rRj4rFNmFXIomNxgrDcMSI/fjqMyywmK7NZb+69Ne//rVRLSZA23VdrTUJ DIJAa33mxNOff/7ZGhntIYcesmDR/BEjRhQKBUQUolK10jwTZ1Lp1tbW7bfv/CwktGR7OxoyJZEQ 0YSvLV68uF+f7R5++O+895gN4dZbbxk5cmQcx9UyqqbRZ319/YsvvtglpjBy31GktJQy1sq0ZkqS pK6u7sGHH7h+0nW77znY932jruI4dhwnnU7PmTPn1J+cwlefYYHFdFUefvDha665NpNKSxSOZVfz BM1/M9nU4sXzLr30klob9tPPPnXMMccEQZAkidZJtY681pD2Um1tbYMH79WJwyOBURRZlmVGGEWR kDKKYzNIU1/xpAknnnrqabwDmQ3hqaeerLafMo8TJl+1WCz+v/Nr3VF41pk/f//9913X1QhGHVqW 8H3/pz/9qfmF6TNeEUJYllUsFm3bTqKYlM6k0n/96wPcB5phgcV0VU477X9SqRSiBBBCWEmiLUsQ qWKxrVu3/MKF87O5XG2O/A9/vPG0006Losi0cnMcx4S8SGmnvdSiRYv2339MZ41N68RxrCAoDxq0 w7hxYxUlYeTbjoT2wCMT+X7vPZNHjfov3oTMhjB69Gjf900cPQAIIYyJ9LXXXqvlYRPR5MmT0+m0 qQomBDiOVSgUhg8ffu7551R/7bjjjmtpaUmlUiY7xJxItm1/bfgIvvQMCyym67HnHnsliXbdFLRn mJvYJmHJHtv0nPPxRzU+/st/fdnpp59eKBRsIcvlsqmIHUVRGMbd8o1vvTn79NNP75SBmVsgAMRx fPOf/rhixTLP84rFomdbWifVwOdUKjVv7scDttv+vffe493I/GvGjh1r0marPdEdx3Fdd/HixTV+ yJgODYhSqdg4yhsaGp5/4bmOv3b1736715C9y+WyiVas5uGuWbNu3Nj/5qvPsMBiuhInn3zKwoWL 8/l8GIaoCQB83zet9IhozpwPu8QsLrrkl6f89NRyuexatnGgmJqfWutMJnP33Xd3SvK/67pmGS3H BgDbthcvXjh8+PB169aZpRbCimOVyeSktONYjR49+tRTT+U9yfwLjj56vOu6JlDSxPb5vq+U6hj/ XmucNOHHy5cvz+VyUZSYz4UptnLMccd+9pdfeeUlU7IhjmOtNWqSUnqe9+yzz//pZk4qZFhgMV0E rfXDDz+cyWR833ccBxFRk+u6QRAEQfDrK67oQnP53e+uHjVqVKlUkoDQXrjLNK5BxJEjR27+IZnG c9BegNQwdepzJ5xwQqlUQk1xXMlIN/E0rpu69977v/nNb/HOZP4FRn9YluX7vm3btm2bYui1OdrF ixY/+OCDrusCCGOUMvGIQ4cOveKKy77gqe/kYrEopXQtWylTgJTq6uouvfRSvvoMCyyma/Dtbx0A mixLJEmitVZAJBAA2oqtBx1y8IknTeha03l0yt/rGutDHUmJpmoDglCJdu30B+/NueG6SZtzMKat kPlUGv1U5YabJk15dkoqmwmCMoAmUlIikXLQrkvl3n7rnf79dthsUb0dK4tu5kLqxslVLXxfHcMW 8Mnq2M+xWkZ1E76/iWQyfXi01qZzVG0uxSGHfsd1XUQZxzEobQupSEtbvPLqy1/0kksv/9Wee+/l B0GkFUg0gfxSyjAMvzl6fz63GRZYTK3TtK7p/fffN/03zJOlaTjo+36fPn3uu29yV5zU5ZdfXi6X jQNFCEFQuYV7nnfXXXfVzjhHjho1f+G8PfbYw4S7hWFoUtMVUC6X831/+/47nH32OVv4gdWeB9dR VH1KjDKf4umnnmpra0un06ZJVLXjYW0KrB/84IcrVqwwEtNxHJDC7PYf/ehH//qFxlHYHoNV6Znt uu6sWbMmTpzI24BhgcXUNMefMMGkIxldZY4wU5fhyCOP7KKTOvro8XvttZepFWROZyFRa+04zty5 c996a3ZNjfaVV18+/PDDjXMnSRK0pFG6lmXV19ffeOONBx986Ja9Cas2s6o+2DIsWF8df77jTsdx SqWScREiouM4SZJ4nldrQ73vvr8+99xznufZtm2yHaMoirUaMGDApEn/3px86k9/UiwWTVKwUZPG UXjPPfeWikXeCQwLLKZ2mT17djabhQ7uDERMkqRnz+6XX96FYx0uueTiOI61rsQ/VSsGeZ53/vkX 1Npob//zbU88+biplWWCxswju+/73bs1/mPmawO3H1TNRtzyMCXBql5CVlf/lpkzZ7quawy0ZtGM u3CHHXaotaGec/YvXNtBAtNi0pSej+N45oxXN+TlF1/8y333+1oY+sY/WC6Xk0Tbth2G4Ugua8Kw wGJqlmuvvb6trc0c0CYe3AQ6BEFwwAEHdOmpffvbY/r27WuatZkoH3Mjl1J+8MEHNTjgkaNGLl2+ ZNddd21uXuc4llJxkkQAQko7k8mVy0GfPv0uuODCLVhjQYeOhFtCL8KvjHHjvl8oFIxP0NQBNs8P QRAcdthhNTXUgw46pFAoOY6HKMMwRiTblsVi22GHHZpKpzbwTZ577plcLlctrOq6bhBE9fX1CxYs OPbY43k/MCywmFpk+vTplmWZQgamaKEQQutECLjpj3/o6rPbd999fd9HJJNCaOJUTMHrOXPm1OaY X505/Xv/Pa6ppVmR9jyv2ggFERHkjb+/aezYcVvYJqyaTs0dFNvhj+fncsEFF77wwgvpdNpUZzCR SbZtl8vlfv36/eLcs2pnqBdfdNn0V2ZkMhlTzkoI4ThOW7HQu8+2d979ly/1VieffJLv+8YHavoi xJHK13f7+yOPPf7447wrGBZYTM0xb94842Iw7WXM7S2Kop49ewrZ5TfSj08+0ViwjNPTsiwjsJIk mTTpxpod9t1333nnnXcCQHNzswmpsW1bECBiNpt9YeqLu+22xxa5GzuGYW3B/tD/hAsvvOimm25K p9OmzIFZK2O7IqLTT//fmhrtrbfeWl9fL6Hi7PY8z4R7XvHlK79ceNEvhw0bZvq4m+clc2ql0+nO KiDMbJ1YvATMBrJmzRpTgckUPXcczzRe7d+//xYwu5GjRtXV1cVxTESWZZsuy1or13UXLFhQyyMf N27suHFjhw0ZPm/egrq6OhXFQghNWiDW19WtWbW6R2PPM8742YUX/XJL2o1V25VSKoqik046OZfL meJhxgu2cWUOwtAfPmzYKV2/dusPfzj+2WefNZmDlpAA6wu8RVG0//77//R/amiO3xg9plQq1dXV gdKoybbtJEmSJBn9zW+MGzd2I97w+Ree6bttf6WUsbVLyzJZLE1NTQcddNAzzzzD5znDAoupIUyJ SyGEUmRZjjmwtIZtevfaMibopVOlQlFK25jotNZSWohRS0vLZhMNG/3aWbPfPP74CQ89+EgmkxFC kNbGCJdKZcIwvPrq37377nt/e/Cvm2qcnRhZbi6NcXgZN1ChUHjkob8bn3WSJNV+KeY6fqk3DyJ/ 3rwFm19goSVjrQQI8/RS9VNvxFs9/ODDF198ydKlS9PptEAhBBKR0kpKqYkKhZbBgwc/8uiDtfO5 O/PMs2a/9WYuV09aE4ICQkBFSSaXfeSRhzb6bX97zZWnnnpat3xDkoBWSqIEglym7rUZ//jl/7vo siu4ACnzlcMuQmaD0Eqbu1r1plW1vXfr1m3LmGMmk0mSxPieqnUotNa13FGkI3fe+edrf3dNtZ6k cZwlSeI4Ti6XmzJlypC9hm4ZV6oahmW+FkKkUqlsNpvL5erq6nK5XCaTMd9+WTKZTCaT6ZSnF8dx jGRsf4xRJmRqw7ntttv2GzFywoQTV61alclkTPEOs6Vt2za9cfbcc89XX32ldi6lXy7fdddd2Wy2 WrnKnCqFQuGSiy/+T975qKOOGj16dEtLi8lWqZ5aruvefPPNfKQzLLCYmhFYpM3xVPm2g9hKpVJb xhwdx6neswGgOsFOaUq4cfzk1B+vXbeyb9++bW0tliUANIBWKiaifD7/ySef9OrZu0t3ZzPBf9Vr ZLI+qw7BT5VsMD/5Upjkhs6alylMYD5fRm9tyGuvv37S2LHjBg3a6YwzJn700dx8vpvpU4kogyCy bdfYm0ul0phv7z99+ss1dUFHjvov0GQEZfXhrVgsHnrwIf95W4gnnnjMZAcnSQJY6UnveV6SJPsM +xqf6sxXDbsImQ1T4kIYi0j1xlZVWqVSacuYowmJrZanN9IKEV3X7VoTmf32Gz/8wY+mTJniOE46 nTa+Xa0hnc4SqbPPPvvll1++5967u7TAqn5rFEkY+uYmbVyHHfMwvuwe8H2/U+ZlNlu1FrllWe++ ++6nfq1ULD32+BMffvjhmlWrFy5cuHjx4paWljAMzQvrc3WIMgxDKaUxWZmlKBaL2brMvffe/d3D a6suw0knnTz3ozmNjY1RFCHKqmEynU737NmLiErFYhTFAPBFaTRafaEaVkp1a+w2aNCgNWv+YVZD 6ZgIiCidTn/88cc/+fEpf7rtFj7bGRZYTOcLLGMtsIRUqhLfY4z5q1ev3jLmWCgUzDQ71go39aC7 3Fz++sD9k66/4YorrgyCwHEcpZS5hkmSZLPZKVOmDBsyfNbsN7vcvDqar8zXROR53k47DXJdtyqw Nrr6aMkv77bbbp0yr+rGM9U1bdueNWtWY2MP+Oea9Sb625aWKfJkfF7V5jBag/EwRlFkHG2ZTOaI I464654/19qlnD9//t8ffqS+vt6k6yJKpZRRQlrrhx56aPLkyQAaBJp2EV/qzU1wntY67aWqecHt 6lzEcZxOpx944IErfn15j549+HhnWGAxnUxDQ0OhULAcWfWkmGN91apVW8YEjSmuY3CxZVnlQDU2 NnbF6Zx+5hmnn3nGbrvtsXz58kwmAySU1lqDbTuWpZcsWdKnd99777/vG9/oShWuqxFy1XaEiJjL 5V565cUuvfdMJJlpwIyIxpgax7ERUtChqqrnuIioVMVQlyTacVytdRTFjuOAUFEcGY2SSqWO+N7h kyfXqKny0IO/YxS/53lhGEpJFmLkB8K2TEdqz/OUUqlUKoqiL/1AmJZBEHhuGgCF0K7rFItFx3Ek iKr7NYqifUfsN3/hPD7bma/KMMFLwGwgffr0MQGzVS+hKQa4dOnSLWB2118/ybRP/qyNZI89unAp qQ8+eO+b3/xmoVDoKE2klK6bAhDfOeTQk046uctNqqOBSmtt23ZX335G1ptCviYy3ZhzECWAQJRC WEJYiJIIk6RSoa2qxsyHsVAotLY2W5bYeecdTzvt1OXLl9asuho39gcrV662bdd1U3GsHMexUBCR 67qo12fSuK4bx3HVWL7hGLumUVGIGASBqRJHRJQoo1YtyyoUCt855DBgGBZYTOey7bbbVjZNu/3A 3BJWrly5eNGirj67mTNnmqo51UaE0N4R6P9dcF6Xntrf//7w6aefHsdxEAQm1sdMExHz+fwDDzww cuTXu5AQMU404wo03p9OCUvf5JLRzCIIAmPUkVKGYWhm+qkVMD5QY8EKgqBcLodh2KNHj/333/+y yy5bvnz5jBkzNqI+52bjnnvumTp1ai6XM0Y7AAClq83jAQB15SHHXFzHcTZiPU2hUdd1qy2wjK5y HAeUVko5jmdZ1owZM66+6ho+3hkWWExnMuGE46tRL5ZlIQjSgEi2tH5+1i+6+uymv/xK2kuFYdze jlAjklJxY2NjNpfr6rO7/PJLV69Zvk2vxmK5AIK0TtrvQ5hN5+bNnd+/3w6z3nz7377Pp9o1bn4V Au0lRqE9lfU/ibiqHSSgBASAak+bQqFw6KGHfn30qCgJlYqFACGgWqHNBGM1NjZc/utL1zatWrVm +bvvzX7k0QcnTpxY+5M977wLTH15cx1t245IoWMVQ7/ol0uBXyiXisVisVgsl8u+77e1tZW+gPIX USqEQdkvF4vFtnK5XCqVTB4lSZEACceupkc4jnP99dfz8c58FXAMFrOhHHLoIT179iwXS8YrYVkW EiZJkk6nX3/99S49tbPPPtv3/VQqRVQJf9FaIWIYhkOGDNkyLh8ivv/++wcffOiMGTPydfVRlFQj ox3HSZJkzLfGHHXUj266+V+1lTQmB9d1lYr5E7HJtaNRrkRkOuj16dPnL1fePn780VOeeNIYVqUU VY3leV5ra+uCBQu7lof04IMPDYIg7WW01ibPMQx923W01tdcc80Rh38XANQGK3ilPr9LkmM7tmO3 trQCgOt5nueuW7fusceeuObqayv+RyKttW1bABCG4Te+sf9LL03jfciwwGI6jaFDh0597nnLckyy j5ACURJRS0tLl855njLlaeNwEaISU2xSuqSU999/75Z0BZ9+esq5555/2223ubZDpInWT9bzvHvv vXfOnDlTpz3/heeFZSlFXagwWBcSWIgIQEIIE4Nl+nYDwH33TT733PNvuvEP2WwWEbVWQliWZYVh KCXecdvtb7/99tSpz3WJaf7qV5e9NO3Fbt26mbix9lKoUCqVTj311B//+MRN++fy+XzHrydOPGPt 2rXXXHNNr169Qj9wXdeEXaZSqbfenDXxjLOuu+Fa3orMJoRdhMyX4K9/vU9KKQSY0BAiMo+amUzm scce66KTOvPMs5YtW+Y4jpS2uc8ZrxMR7brrrl82P7z2ueqqK1evXul4bhzHRApAx3FoSgN4nntT VCgAACAASURBVDdr1qz+/QaUiqUv0gFbQMBTbWLCy0zUkdl1lfgkgKuuuvLOu+9SSoVhKIQgqpQ7 t23bdd2335q9xx57dok5Trr+hu7du5vacrrSzSmJ43iXXXa58srNETR2xRWXff3rX29razNZAqZ8 SZLoXC73l7/8JQxD3ocMCyym0xgzZkwQBEIIY/IhIqVICCsIgv2/8a2uOKMHH3zQdV3zWTD3LeNE KJVKt99x2xZ5EaWUixYtGP61fQqFArRbsExATC6XKxQK2/Xrf/bZ53z2hSZzbcsTnZ2OMVZ1DNuX Unas5D5u3Nily5fk83nf923bNsHa5XLZdV3P81YuX9G7d5+npjxVy3Pc92v7VUtORFGESFonps7c zJmvbrZhTJ36nFlAIjJdKMynXko5dO9hvBUZFlhMp3Hv/ZNTqZTvl8yNGTWZ20AqlZk9e/bZXS3a ffiwfUtFP5POmbSjqiHB9/0xY8bssusuW/ClfPrpKRNOOqFUKoVhmHLsICgb51RdXZ3rurf96dZv f+uAz+qAagEqZhNiYq6Ny8ykEZhaVh1/x3Gcj+fP7d+/f0tLC2qVJJHjOKZGVCaTiYLw2GOO+/nP f16bEzz9f89477330ul0kiQAgkiZyp+lUumYY47ZzIM5//xzzaOFkXpSSgDhed6SJUuO+tHRvBsZ FlhMp3HCCScQkQkGR0RBYMKVUqnU7bff3oVa3Y0dO/ajjz7yPM/3/Wreu7mr1dVlH3n04S3+Uk6a NGnpsk/qG+qam5s92zS/E2EYW5bjeelZs2YPGjSoY8SV53mmlwt/CjbxQSxEtUp71abyuZbC2e+8 tffQIeVyGbUpOuBpDVGUpNNZy3L++Mc/jhs3rtZm55f9+++/v66uLggCAGEaAfm+r5QaPHjw1b/7 7WYez8SJE0eP/rqpsGX6HGitAUR9ff2UKVPuuO0O3pAMCyymc7jiysuHDBkSRYERJUmSCDKVOYXj OBdeeOGypctqfxbjx4+fNm1aXV0dAFiWZR5njWRsa2s788wzt5Krmc3l5s+fP3z48NbWVh0ntm1X q2RlMpnW1tZtttnmggsuML8cBIFpmcefgk2LKZdqjDrVUplfFO720kvT9t9/f9/3dZyYJjCWZZkH noaGhueee2748OE1NbsRX9vXCEfH8cxPqq1sps94pVOG9ORTU0yl+GpRMQAgQs/zLr/8Ct6QDAss ptOYOu35nr16lIOCRgApNILpF2YLaQs5fO9hM16dUdvq6ugnHn86m8kLRARAACJl2zKOw5JfPHzs d888qxPqCXWiZei5F58/7qQJYRKHoU+kTJKX1tq1046VuunGW374g6OWLV2WTmc7sQ5WVdhteQqv Wt2q40/+xTQffPShHx5zVJjEWidEynz6iMgiuyHbbdGCJdv3H9Ta2loLUzvumOM/+eSTVCoFUAn1 IyIQ2FpoO+6E4ztxYH+69ZYgjMMoElJKQEqUEMKynJaWljFjDuBDnmGBxXQac+bMcV3X930AMDHv REQCTRzJIYd+58ILL6rNkR9wwEFPPfVUNps1cVdCiCgKPM8LgsD3/WHDhtVsg5GvlEmTrp/24tR0 Ol0oFGxbCiGMlwoRU6nUtGnTRo0cbWwtHYOvmc7ipptuvPjii021dyGgWnMVLWnbdrlcHrDd9ldd dXXnDvLN19988sknc7kctLdTNPtHa73jjjteffVVnTi2Qw495MADD/R9v9IMQFbuhqaw3y9+cS7v MYYFFtNpLFy40PMcAK1UrFRMpIjIch2ttee4k66/4Xvf+++aGnAURbvvPviNN95Ip9PmSRoRhQDT WLdcLu8+eI/nn392q72gu++xx8LFC4YMGdLc3Aygq51MjBOqXC6bzm4cg1UjnDHx9A8+/AARoyhy HEspFalKBqIp7/Sb3/xm/PjOjNoeP/6oamijcYDatq21TpLkzTc7vzrx3x64t2/fvoioEcwyGldm Lpe78847eYMxLLCYTsN13fc++D9hySRJTGEbKWUUJWjZrutms9kXX5i2666710j2+I9PPGm7vv1X r1zlOa4lJBAJRJMojojNzc1f23fE5kwXr1lefHnascce29zcHARlk9Bu6jGaADXoVFcm8yl69d5m +cpl+Xy+tbVVSjTBWOYCWZbl2s7jjz42+uvf6JSxjR07bs2aNel02uwcE8UPAK2trccee2yN+Hnf fufNMPKNDd606ZRSIgEpPWzIcN5gDAssptPI5/NLl36Sq69bs2aNCRq1bTuOY5OJlsvVr1295qij jznggIM6cZCPP/744N33fOCBh4QQqVTKsizTioSITDXnYrF4wEEHbs22q0/xx1tueufdt9PpdGtr KyKaXjrQngdgvmZqh7nz5uy+++7FYlHrBJEQSUokQgDRo8c2b7/97qBBO21mWXzTTTdPnTo1m61T iqIocd1UHIe2LaMo2HXXna+/vlZqptu2fcwxxzQ3rwtDP5fLxHGYJBpAeF567tx5J598Cu8uhgUW 05ksWDBv6PBhzc3NJjLXcRwjX3zft2037WXeeOONxsYeP/jBDzfzwB568OERI/YbP/7o1atX19fX a61N3SDLsgC0lGhyxY874fhHH32Er2NHBg4auHjJosGDBxcKBRM9AwBSyiiKPM/j9ak1Xp05feTI kSW/LG2LEEzlEcdxSqVSJpNpWtfSZ9v+118/abON5zdX/jblZUw9F/NII4QQQkRR9Pqb/6ippfv9 72/Yc++9gigMotA4NE3OQTqdvu+++xYvWsy7i2GBxXQmL7/84vijjwqCoFQqaa1Jg+kKbJRWXbbe ks60adO6det+8MGHbgan4TnnnLfXXkMmnHjiwoUL8/m8ZTlagxCWZTmI0ggF3/dz9XVvzHr997+/ ga/g5zJ9xkvjx48vlUom2t1UcmcLVm3y5FNPHHnkkW1tbUYcaK3DMPQ8zxbS87woin51yWWnnPLT zTCSb+1/YLlcNkVTAcCU9nBdt6mpafOXFd0QZsyYnk6nwzA0CRxGYDnSymQy39z/W7y1GBZYTCdz yy1/XLVmpak0nSSJFJaJZjUHluM4lnQ8z3vzzTfHH3X0jjvufNRRx7z33nubdgxXXfnbA8Yc2Hub bW/5480rl6+oz9UJQImivZdzpZyjidceM2bM/PkfDxw4kK/dv7qst970l7/82TTCk1JyodFa5tZb b/nZz37m+34QBCaiPPIDABCIKc9Lp1KT777n0IO/85WO4YILLnzzzTdNMFOSJFJKI7NaW1t32WWX 3/9hUm0u3bHHHmsabJuq+raQJjC/ubn54IMP5a3FbAQWLwGzKfeTZb319hvnnnvu5LvvLZUKnudZ lgMASZIYg1aSJK7tuTYUWotPPj7lsb8/3qNHj/79++8+eJeDDz74u9/97kb80T/84Q8zZ858//33 ly9fHgXKiLlcrl5rnSTashwiTHQsLBHHkXFc7rbbblOffzaby3X6ipkEKxNgW60SJISlE1U7l3Xs uMPHjjt8n31GzJkzJ5/PS1uArjRt3Jx1R01rakQCIEQwrhzbloVC6ymn/NR4oDr+/kYMrKodq0mm ppZHPp//zW9+/RVuA9QKlBBCKQVgMgkU0cbsgSuuuGz/b37juGOPD4JyLldPRAlpIG2mk8vlXn75 5b33HPL2u7O/orncfuttmbRHRFopBIEglE5MYuM/Xp9Zs2fXVVdd+c7st1977bVsNqs1aASNgArS Xmb6y69c/MtLfnXZJXzCM18KzrhmvipOPuknTzzxRLkc2Lbtuq4QIkkSY0Myt0bjPTSp0RoUEdm2 XVdX19jY2NjY2K1bt/r6+kwmY7aoie4KgqBYLIZhuGLFiqampqamplKpZJ6SpZS2bYNGy7JM74tq 7pIQIlaRya7q06fP//7P/5xy6k9qZJX+3/kX3njjjel0GkBYlmWqTcZxOHDgwNdq72501FHHPP74 45lMxrHcarO8KIrWNq3aDDLryiuv/PXlV+ZyObMlzJUFACllW1tbdQAmYuxfj4fwiw5E+NRrjcDa tm+fjz+e8xXNa7/9Rs2b+7G5+o7jGAtKsVg87bTTrrxqI1UdEe24487NTa0msUOr2Kh5s2LFYrG+ vv6+++8dOWrkpp3L8KH7LFq0yPPSlabpIJROLMtqalo7YcKEG2/6fY2fWgO22z5JEqWUUmQeCKWU QRBYlli5egWf6gxbsJia4Nbb/wQAZ54+8amnnlqxYpUQIp1OmzrgVVedEMJ1Xdd1tU5MmcRysdTW 0rpowUJjHane4aBDQxtTlsncXz3HFV7KnOZCCA1g3taU2zFvEkWRsHDXXXedeOaZ//392urUZoLu TeRHe9Ep0bH9X01x77333HTTzZdddlmh0JrL1Zu7dRiG/1bQbBLCMESUiLL6p4yAJsL6+gZq5z96 4jSyoEPJeLOF6uvrv7p5JUmiNdi2G8exUpQksWkK+Z8UzEfEefPmDhu2z4L5i8IwFJUGPDJJlJSy vr6hXC4f9p0jTvzxhGuu2WStAM8886y5c+dms3UdrJtaSlkoFAYPHlz76goALrrol6effkZjY6Pp C2lZVqlUyufzbW1t+35tv9dq2ALH1CAcg8V8tVw/6bo5H390y603Dx0+RFHS2trs+yUAbdtSCDAp 5UrFgoSONSVkCzvlpDzbS7vpbCqbclK5dK5bfbdu9d3qMnXZVDaXzmW8jIWWa7mu5aJGUCBISJCo EQRJWyQ6DiK/5BebW5vqG+oOPeyQtWtXT5/+cq2pKwCwXcc4hpRSti0dxzK2N9u2a/OCnnbaqStW LBswYEBLS1Mcx0opAvjctsSbnGr2YrWNTLVtH+r1/wSBIJCAEtB8/dl/X3ggEnzqVebbrzSu37bt jtNxHMfzvE2ypLNmvTF02N5lvyiklJaltPZSqUSpRCnX87xU6g9/+MP3v3/kJpmFX/b/8pe/1NU3 mP0cx7GxxpkP+7QXX+gS59WJPz7xgAMOaGlpQURTuzWTyfi+b9v2e+9/OHHiz/lIZ1hgMbXF+PE/ fOGF51etWjFx4sR99tkHAIrFYhAE5XI5DENT5a9674T2UBhzs6n+xIT7mOPb/L5xUVVrGCqlyuVy W1tbkiSNjY0HHnjgq69Onzv3o8mT767Z7nVJkoRxZB73y+VysVg08WrlwK/lCzr7nbe++93v+n4J hRByM5Ue9X0/iqKwnaCdMAzLYVAOAz8Kgzgy//woLIdB9dtP/fsizAvN+5gvzNfG0PjVWebM1Y/j OEmSMAwLhUIQBJuk5+PUqc8dfvjh5uMWRVFbW5sJQzQLmM/nH3vssb33Hvqf/6EhQ4dprYOwXPZ9 o7xLpVIUBa2trUcccUQqneoqh9Ujjz687bbblstl00WnXC4TUZwkubrMn/70p2XLlgHDbBjsImQ2 K9VA0WXLlv3qV5fNmTNnxYoVa9eu1UmlYa3JOTIxVVprUqabjQAADVqTBgKlVaQiExVuHDqI6Hle viE/ZNDQPffc84orLusq/YB7996mf//+juNYYr1kDOOod+/eNT7yyffdc+211//2t781CWub4S/u uOOOA3bon0qloN15VzXziA7hpFVF/i8cl/8iBmv977S/XCnVa9veX+Ue6B1FkQkDr/bHTJIknd00 omTy5LvPO++Cxx57LJ1Ox3FsqvNXPfV9+/b1fX+//fabOXPj/V+//OXFjuMMHjzYlJK3LEuiCMOQ SDU0NNx2x61d65h6481/jNzv6yYmAQCEJc3TXbdu3SZMOOnZZ5/mk5zZEDjInakJHn/siWkvvrhk yZLm5uampqbm5mYT2WP2p3HQmPNOSul5nmnF09jY2LNnz379+k2YcDxXW+gsBg7c8aOPPqhZnybD MAwLLIZhGIZhmC0BjsFiGIZhGIZhgcUwDMMwDMMCi2EYhmEYhgUWwzAMwzAMwwKLYRiGYRiGBRbD MAzDMAwLLIZhGIZhGIYFFsMwDMMwDAsshmEYhmEYFlgMwzAMwzAMCyyGYRiGYRgWWAzDMAzDMCyw GIZhGIZhWGAxDMMwDMMwLLAYhmEYhmFYYDEMwzAMw7DAYhiGYRiGYVhgMQzDMAzDsMBiGIZhGIZh gcUwDMMwDMP8Oyxegq2co66d9sT/LU0LJEtokVEq3kQaXW9lzyR6K9s4vA4M82lsoRPARNl9ReH9 W47lBdnKQSLiVdhqKfpx9xP+GnqEqCyRU0GRHPfLbSCUn/tzIsXCggUWw2xVyAQT9IWVkn584A7p J349jtdka4YtWFs1O/zP3aFdB5YmC+MIRSpL9OVukET4BfdfuZUJC/wiBfpFC/cVPzp91X/3S64D w2xW00Enfe4cC4XQgjS5z85tmbusbac+dXw1tt5tyBasrZaR5zw4c1kEHiC6FCdgK6Q0UvnLbaAv uNHSlmrJ+CJBiVvZ54jXgWE++9hBOhEpAB8QIck1lJub/nY8LwsLLGbr4sS75v3tyecDJ2WlcmE5 tmxEoWOIAGxeHIZhmI3AiSOF9SC0wlYAVySZfXLha384kleGBRazFZH9/h2+JsjU6ViBsFFrSgJw JCpOLGW2XsQXHIeaPZ+8/hsAWRowDToCLILwIPJsf+2Rowfec/YYvrgssJithXWt5XwupTWFsUq5 FhFpTQCAyHcShmGYjRJYRFIKral6jpaDxJKY9tgzwAKLYRiGYRiG+Y9hfxDDMAzDMAwLLIZhGIZh GBZYDMMwDMMwLLAYhmEYhmEYFlgMwzAMwzAssBiGYRiGYVhgMQzDMAzDMCywGIZhGIZhWGAxDMMw DMNsAVi8BAzDbDiaKI6VItRETcVw4arCumLgx3rpuuLiVS2xyACAH+liEPh+nCQJACBKhSKO4yiK zE+EEKYpU6iFUipJEq01IpofbkR7CY0gYf2rpJSWZUkpLVKVX9AaACzLchzHcRxUEQAgomdZuVwq 41mACADbZeJtu+V6NWRsG3vns327ZxxLaiLPFpaUgMCdpBiG2UC4VQ7DbLEQQaL0qpbyopVt/7dg TdGP3luHxTCOgrgYJWEc+2EYJUpp3ZxYWuuEQCmVKJ0QEJEm0kohImkErQElIIIGUAowQkQCAkKQ AqQNRKAVUvJPOonQaKmYCHA9RvGQ1mDZlYH+06sINqonJiJWXk4KCAARtEYhhBAdZRYASFJEZE6/ 6t8lIiIHpBQEWidAhEgSUGutBYK0gBIgQkuQmayUgJYUIISwhRCIUqKFQgjR3dGWQNe2Xdv2HCtj O3U515HWnn3UNg3Z3ft2375XfcqxhGDBxjAssBiG6SQ0UTlUS9eWXnh35QefrF3ZHLVFiR+pME7W RkmiVRgloaJYYaR1ohBIS0qISCsCBBASUAIAgJCqrFEAIgkEIQERhAQAQQkAAoAmBBAgsPIS9CsG IgBAgSgBgLQGQYAoQBIRaQQiQCkBlQjNH/qM1hNGAUH1wEFERNLJpyXhxrUbJ2x/oa78icq3Ajoe cdU3R/25Ag00gBBA5n2UeT0iKm1V1BtqCUjGMIakwQJo/7tKI2hEBCCtHRAAmkAr1AoJLCBEDJUN SCAASRMoJHM1UIEthLAlOUI4glxHpmzLtu1urmVLkXJkt7TXp9Hdb+dtRu3aPevZaVfy54JhWGAx DPMpFUHr2oJ3F617fe6aj1cVljQHrYFuC1U5iCMdhokKozhKgLQAEESIGpWgyl1fEAKZuzgAaCcD BO2SArDdTqRFAut9bXq9nQaSitZpPwGqJ0G7+mn/iUZAlGDMPMLIC22UExFYGpQGABRWu9lJmD+s 0ViSdMe3B5VUxI3RVWZgRNDRhINkrEzGxvQlF1WBsCrvWRVSRABJde7VxQcAQLfj3zQnoSAADKsG LY20fqi64kOUSO3mLgUAJK31A+gwEakdIuqw8rpiILPaBR/RP10IxIqKrTg6K/9LJgERmeERIJAA EIAAGkAgIKFQErUthedI27Yztpd17bxnNXqyb4O1U+/cN/bos3O/BtdmQcYwLLAYpovKJoAwUrMX rJvy9ifvrSg0FfxiEDSHbjkIwlBFYZIoIJKKQCsCu10HSKMDSAhBoBBcAiCBIAja79AAYGubELSR LQiA5v4KMimT0RIojQSr3KDR+SfrTlV5/JNPCqu/L3VMRB2FiNEWCo3ZCQCrJqJ2/WT8bloDUcXq ozVgsn49Oryb0BI/zzSlOgROgaD146QvmX9jlsu4MgFACDNgy0iTDt5AQ0LRP5vK2r8m6wvCrPDT ljA0Auifz8/25dUd1/6fzlhhlDAAIK6fJCldXR8EXT2WEynbrzcCgdAaiJBAWWq9DiMBRMb2CJCQ 1qAUIKLlEBAoBSAgARSISJZEW0LasdOuk7KtfC7JuO62Dd5efbt9Z0i/Qb1zluTMJ4ZhgcUwmwul aXlTecaHq5/9YPWytaWmQrmlFBYj8BPwYx3FmmRSubWTACAQouKcclS7QQUrmsMYWjQCAApBREAa QFcUjDJmHl2RHwgIKCQoFQsygeECyHih2n+TBCISAoDQAGS+gqiDIUSQeSGYmCky/4NIYcXypZXl kNZgrEtKAWoTwAQgK4NUiUAkIlJKSqkSC5EAADUB6narj9ImGKtiVDOuQ+OzEx0teO0aBUFRh/nC emuT/nLnEmGH15KoRGIBVFa7qqWqP5cKENtlXGUVAFFqrKwrGu+nUWtC2rHWGoQgIq01SAsQQSmQ WJldxT4n2/9KVLXYtdvqZMUStn6+Gqjd9IV25ZdJV2LIAADRBouICBQBEGiz5hq1hY7WurJIKCVI AUhEiVAVQVyJRSMQCFIK0pW/Z/y5urJQYLy9mkBpAA2aENGWCNK1LZGxZdqGrCPzGa9H3uvdkD1+ 1Da79GusS7t8JjAMCyyG2RD9pD/8pOlvry18d1Hz6lJU9OOlSSaKgqDsqzgE0ghIoJCArHahIC0E QQLbpYMERECBAKS0IBBGc+gIEQGRsN1ag+32kPXR3LT+3i9F+29IQAm6YpVBa/3nlHSHZDYpgVRF jpibLwEiaiPvzP8iEqQFIAAkgJW7OABoBaQFmRggF7QGKcESoBMQIKXUWgskR0pEFEieYwlAAdq2 7ayjtdZCCMexpUQkEgJs2+4Bli1IoshkvbRt1aU9z7UsAUHQ1D2f2blfY/8e9SnXUkpHiY5iVSyF vbtne9anXEeK9cKAEDc++ltrKvrx2rag7EfCkrYlASBOVHMpWryqdW1buaWtbLn1SlMQ6pZS4IdJ GIYaCEgsCH1Fxp2HKtFxrIhICNFaTrTWhFKRjhJNIIjIjyJEqbWuxqgBIRABoaMDjcawJkggoNSA AJCiSCMQtvt6BSJIEEgi1uuj0wSIiqVNx1XViUaWdXBZGiumroSLGSOWFEQV2YiIGozyBqEqGpfa o/GM51FWZCdpo/6xqkE1IBrJBZqAlCCzZVOABEAAMSA5rsx4rpdyellQl3F33jY/eufuB+7Zu3su hRy+z7DAYoHFbA3M/Khp3vLW1+aunLumtKJYWhfEbVFcDmJIHNB6vZ/LmFUQQeiKRUGI9WYJrUHY FZsHAZIC0AJJCEEm2w5BA+mqsaryQjBmI0QU1Wy1ijtMIKLJcVOkQWshzf+umD2QBBKAJi3aBZNK zN3UJLgl2gNjukINqFECIiGSJ11LgG3JlG2lLZGyLc+yhIBt01q6bo/6VL/G3KDedf275wZsk007 lmfLjoYeZuPlHZFSOlIQxmrequLsT5o+Wdu2dHXrmrZSFKuichJFoVJ+nPix9uMkSJJEkxWSVqCI FFhkkhI0AJEFRQVExkKGEqRlNpUxZVHF8EZV851xhJrNVomDI+rgrsX1xrPK1pRGThn9LbDdCiiU 1poIAQShABCVVIbKA4AGAFDG/0lImnQHA6F5bBAChbAcTLlW3rO7e7JnxhnSL3/c/jtu1yPLQfoM CyyG6TIEkXp34bprn1+4urnUXCi1lKJikJQiFSSaFKJUpHUlOQ4BhAVSAhBoI3yE7BCJjATSGCM0 EhGhAAAQAlFSnFB7KA+JSnwPYLvTp+KWqgYniUqIVSWaysimBAAwqcR6k1IVn5rxGCYIQgipBWpE 5dki5diOLR0bXdvKuW4u5W1bn+7fPdsnn2rMud8d1suSQkpO99+iIIA4Vk2F4Jm3V69uCxauLS5f W2gKo2IQluI4SlQxpjiO/VhFCQBJIAsIQRHICAAQZMXWJQUKAQBki8r7mo2K7Z7ZJAUAKAWRqngn EUEgJBW/9vpAMU1EJK1qQBuBIGMFBSKLUhrIVMEQwtJVsSUUElA1PE6TeT8SiRTCtSBtYy7ldK/P 9GnM79in/pwDd2isSyErfYYFFsNsZlpL0e0vzP9wSfNby1TJL7cUiqVyECdKkSQERShcaXxvgBIk VoORASWY5DutCJQgLRABKEEXUBsniMmZF4CIFOsE2othVp7dAQBA2qJSwAlFe7CyAERMIkQEjaS0 IARNoAARE+WAECgUElk2SAssS9i27O5ixrUzntXgOgO2qdt7QMM3d+/Vp1vKsSXfW5iNNp61lePX Pl796kcr5y0vNJXjUqRby1Gb7xdjqRKK4yRRpEiqymMACh0QEQg0JlWUiFJonYDMtis98+SgUYIA RB2SRg1IYAy0AkAAoKQyoiQEINQoiMxHQ0oVEyEIJPNMgu1R/9SetWrCvzQZqxslEhAkaFskaRvz Ka+hPpVNe6N3yh+wZ99Ru3TnymEMCyyG2XiUprcXtNz87JxPVrXND3WxUCoWy2GUGE8YERIC2BWP HgpJJnHdBPB2SMsXhNXcMUXtYdSI64s5AbSHGJt3kJUYFBCgrEoMCgBQpSQSEmBknt+VuV+Y95MS 0fbSjsy5Mudigyd7pu3dBuRH7dJ7+A75brmU4CdypsYIIrVkTduzH656Z8GahauLLeWkEEA5wnKk g1AlcVEDEJEiAgDC9kQK4YAQFb8katSESIioUFYqkBkj2fpyH6aaWoc8VgAAEOsTKLWxQ3sGkgAA IABJREFUBFesvKI9M8CkRhq/PBHEUIlC0woFZDy3rj6byWR2Svn77Nj71IN27Vnv8TVlWGAxTIVS kPxtxieP/mPx8pa2ZYFTKpXKQZhoVcndkgIQQXjro0xAA6IgjQCqmkyuq2l6xqDkkU5MHDeaQCUB WmsiRxvxZOoOVM5xABUBQSW1igA0oiYk0JgACpRgIzlSpDwnl0m5rrN9VvXKp/YZ1OPw4f171af4 eZrZsoli9X+fND09e8V7S5rXtJaWBDIIwmK5HIQqIYiJSBEoBcKplFKTwhShBTDuSLfyBWkQhATm 0y00AQoA0FhJdDVZt5Zod5mTNgY1hQAIQrWXpSAkIUkjaAACEYeIqCgBIiGFY9sZz81kMgPy/i7b dDt61E6jdt2G/ecMCyxmi8UPkzumLnr6rZVNbcUFERWLRT8ItYZKoxVhgRAgQiACaaGwKk+3JIjI okgjaBTaFDpoL3RpVSqAo/FqaCDSqLUGESKiFFalIlKlQABBogAASKEm0gpAS0AhBNpOyhFZV+Y9 q1tKbpPP7jOw+3479Ry1yzYsnhjm32LKvz0wffHbC9d+tKJ5bTFs8pNCSIVYB4myokgDEYECBGGB FCgsRNQWVapUoDaqq5L5qDwQSAIFgaUr1UwUQmxjpd4HKaAYSZv8EkW5iqUZAZEgiUknEoXSGVAJ 6AhEApJsqbo5brdUul8e+vXM/+jrO47Zc1uO9GJYYDFd56glmP7hypuf+WhZU2F+MSmWAt8PY4W6 Un5aAgI4GpQCIaTtVkoKkRBCaEraA54S0LqS0FfJWjIZfGRqDVmEAtCXev0B314aGwEpNtntpFUM oG0pXNtxXTeTFhnP7pF1d+udO2JYn2/t3svh2tYMs1kU2LK1pfunL5i5oHl5i1pdDFrLURgGSZIk iUq0BhSIlql4ImxLgwKhgUAiAJJGTQjYLsBIVyLxKy0mlWmamZgESAAwaStuYmkiJUBbAoSGJIFE C2FpbQMpUBqQUJJti2zay2RSe2Rp8IAe53xvj8Ysl/hiWGAxnUqU6Funzps6e9E7TVAulwulYuBH ClBIi4QEAFvIhDQBgECS7TlHSKAkmIoDCqpCCjURWACVNPFqmXLQGlQIaJkCm6Q0KAClK714hTD5 55YAz7EzmUwmldreC/v1yB2wV59xI/p6Dksohql1+bWyyf/zC/Nnzl3VWvIX+lgM/IIfqCgBjUJY GgWQFiQ0AkpBUoCQlT6PpAVpjZ8uJIsEJLFS51ZpRIlSEpoSYmUAQJQSJGjQSQJKI6JOtBACkJRS EiiT9rrn6+vq6sb0tY/Yd8DX9+jFxi6GBdb/b+/MA6Qqrv1/TtW9vff0DDNswy6CghoXHs8lLjHr T98ziTFuiNEgKkoiAioiO7iACyDIosEVJL6o0afvaV5i8oIaoyKLC5thhs2BYfbpmenue29Vnd8f d0J4zHTPAhrU8/lrpvvW7bvUvfWtqlPfwxx5kinn2TWbV65rrKtvqG1oTKYyKVeDsEDaoElYGpoz 7foDTKI51IkECIlCECAYAjCoCdAQeChtQPRDLITv06gJLRd9t0zfGcH4qXMliRgYDeAiOhGbErFg USIaj4Z/MKjovBN6nD20O8ePM8xXlVRG/XpN6XslFWurnYamdF1dY1OT5yoksAgkEILMADTHa/qO dEggCBxpAQpAAmUEACJpMqBUwIoaIG0MNecfIkQNAKgAm0MzDQKQ1qANGWVU0HfFE6CjtuwWi/Yo yO8Sy7v9hz3OGtKTo7sYFlhMu3uTRLP/429b9lVvKa/YXdtUl1GgbaAAgA2WA34qleZVQSgEaK0J 5T/8OQ/kIUEMKpeE9POiAYJEQjBIRlPE10/+Mm7SBowRAowhQLJBR2xMBGVBLFSUiBZ3TYz/9sAT BhbxdB7DMAdTXtP0+trtL2yqq67LVDc01jQ4SccoI4AsIIiQSoMmC8H2h8yFQEEIRC4AgPCdw8h3 bEVDxpZgTHOGg+a3GQARBAgAQZHQRJ5GQ825zI30M1kFglgYDfTJD595bPcfD+/zraFFfGsYFlhf d4yh0oqmyavX/m1vsrLRa3BNynW1Ms22BZYEKdGyBYHvDUhCAQCgJIFkkIBAIBj0+3+C/pGeFhEF giccQAkkAGwwAlwNrhYojLQBNAovT1JhRBblBXrlx07oX3T7RSfkRTn6gWGYw0Jps2F75fI/7NlZ XVfWkKxqzDSlPFeBAQGAtjSeIRACLLs57zYAgBHaN79Hg39PRgRCAqIhg8ZIBAHN2R38IFEdA9Ig NCCAUeAZIAQhwHNlKBCx7cKI3bcw9r2hxbf9cCjHKrDAYr7KNGXce55f+96Ouj0NXnnSaWhyQBMi CAnNidIOWJyDDaQPSlenAFEI0WwaRQc8EZp9bAzZf0/PAb7ZM2gDxkgKE2mJJhSCgrDVJWb1Kcg7 58TeN5zfNxEL8x1hGOYL7VISrfu0Yt4fPttXWb+/LplMew1p1/EMgJAglW3AnzT0U2OhH9gAfroF AXDgX9/hRYMr/QlFDQACpdBEYDSgjQKbFzMCaaWACANBBNklFuidCA7sFr7x2wO/e0pfnlxkgcV8 KamqT835zYfv7agua8hUNKLrukAGhGgOIZcCiJq9aqg5V8xBNSL091SvgGQkEhgypFAEDryoAHxn KQIi0AIESTQB1NGAKIqHu3ft0qdbwX0XD+xVGOP4KIZhjmZcT7++bvfyNfuqGxora5M1DemURwok CAsIwXabu5R+VITfzSQShoQQBKCb208BAgGkQNfPog0gfIdW31nGMsoQGqOb366khYWRYKA4Huxf kHf58F4/++5g64C3H8MCizlK+HB71ZO/2/LnPan9yabylANKAAlAA0KD0JZBAPDNDjQZECiEICJJ 6Ds1Gz8U3Q84EBKMC393Qie/T+b/rwgNkfEkmaAtErFwYUEiHo2NObPoh6cPTPDsHsMwXxUI4J3N +157f/tr21VDU6q+obEh5SpjDNqEAggg4Kd+R5CIUhARoN/hjDa7IpMR5AeeAgryEEAYqY0wGhEN SAMBELbRjWAkaN+SBiIh6pUX6JEX++nJ3UdfcEIkZPG9YIHFfHFs2Fn/2B+3rd1e/llNuqZJeZ4A sAAkBv1kxgR+yjDfAVkAeBqEaM5dfLC/FEggAu1HoCMpT5CxhMwYAaRBe2CULUXIxrxYLC8v77iu 4puDeoy7cIjN3SyGYb6W1DW5s1/YuHlPzaYa3ZBsSqcdTxsiicICIQHAkhoRjUBCo5szahMACDeM wtLoO8soBCXIFcbzrAgYjQRSIhFpzwNFlrCUFoAEqAIB7Ba3jumad/23h15+Rl/b4tcvCyzmCFHf 5Nz+zJsbPmssq9PVDeR6BKgANCChBUIIQiCUiGiUREsIAUZ7oI0QggQaAyAtIALth6ijEAINaa2B ogAGjALjARgQWtpWOBg6PgpFXeL/flq/G78/yOK8wwzDMDnZXdV038ubPtyxv7KucbdHnqfJ84AQ UIC0QVgAAoQDAsFvbP05RBQAAkESaSAFRCBQoJCEQpMTIDAgDAUMCk1ag2uIUABhImb3TAT7FgR+ enrv0d8dymEYLLCYdmGIVr+18+k/b99TXvW3tDCeAm0ESCGEEWgkgkTQAgSAb/ZCGoCa18EQIAES kS+qUJIRYAxIBGNAKyACMv5SZIkiHDRd86N9CqLD+3W57aITe3SJ8vVnGIY5fIjo9Q/2PPv2zm37 G8rqMnVNjgKjlUtEUtooJAkJaKOQRqWFlEaSAYLm5BQCSCAC+QnsgQAR0AaDYAiFC9qQn/hLGzA6 YFmRSOSYPDGgZ8H8a4f3LYrw9WeBxQAAlNekRz29bu++6oqaumRapTwksCAQAitgkUcIWhh/Rg+N loAWoRFpDbYmCWCBsAFIkEKjtYVgtCCQKAyQdhQYg2gTkBW0ikJYHLeP6RK49KxBl543mPs8DMMw XyQZV9/32/Vvbq3cVZepbPQaHRe0sTCoyAOBYFsCEACMkCAQ3BTIgBRBIjBGA7pSuERKmghAsxJD kP5iI0Q0RgIQGBfIDaPpFgv37140uHePZaNPkoJnFVlgfR26NQBL//Dps3/dU7q/sa7BNY42jtLx ICgFAmXQkhKVcg0QCiSSgOj74IE/TtXcoRH+WJQFZAFpTUaDEJbnf2lIWlgQw36FwW8d1/WW/3di 3yIemmIYhjkaW4R7Xtn+l+37/ravobw2lU55QARCG/AgEAejEAwiEBEBggj4g1ooBAE152kVBESA AOSCIgAMiAAYVMoYbQARtLJtKy+I3ePW8d2iUy897dRj2QqVBdZXgvom987nNv2lZN9nlfX1GWHc jABj2aARtCXBtkEiOAaEQJDU7DTl5zYGCR4IJCJD5MdOERESCc9o/4kDEAQhmwrywoX58Qv6xm67 9F+KEmwxxTAM82XldxvLl/1py6a9yfpkqqHJ9Yw0aIFAkABo4IBlKaIAJKWJSEpJ2gJEgwaAAE1z LlcAUBKQQCsgjQSkFICQweCASKB3Ud613zrmZ98ewBMaLLC+HOzcn7z98fc/rawvrW1q9CzfjBOl AqkQwwZ8s2ACAILmlDJAzV6fvmUwCAIgAA0QAq3QaCAF2hCREAIt2TVs9+mW+O5JvW6/YHBBLMDX nGEY5istucqW/Olvf9ub3FfTmHbRczMgQFoWSGnQIrQAhZ/E2vffAiJACQLBGBtJaQ0A4HtJ+N11 AqEdUtKQTYBo6a5hMbhrbPiAng+MOo0TLLLAOlpYV1I15bkNn5Y37G1wHYVgAKVNoMAilEIYTcY0 +6QbAZbV7Izg2yUIAUQgXTAGgIQQ4BG5hMayheUoTwStwmiwOBEc2iN695XfOKZHHl9whmGYrzNE 8NT/lj7z1s6dNQ1VTZkmzyGtEPNIKbCEFZAaNGkPEFAI0hYIgUKAISICgSAEaA0WgNFCa0TUwu/U CyCAjGMFRH7I7lkQ/ObgHouuHc7GECywvjheWVs27w9/K61qbKysS7nKEIAdgoCNSEiaSBMSgARp Cd93CsBIAgG2NkSktQZAKaUUtjFGa43a08YAaZCYCMneedFBvbp898Q+Y39wLF9thmEYJjdKm9G/ +rikbP+OyorqlJsxCMYCDFhkYYAMkJFEREBKgLBQoDKeFEgCAAjBAAAaYTQqbdnCgFCEpDUoF7QK WRAN2f26FQw7puvin58etDmvIgusI8dfP62e++L6TWVVexu8tJYgJJIipSCUB0gI5PvDGWMIARCl CGvjAXjN2RVIAFlkCMEhIoEIhozrgdHBcDgeiQ4tjJwxuMfdI07gjgLDMAxz+Hy0KzntxfWf7q3Z kTROOg0KbGkhogeGUIAlAGxAkggEntEaUDT7dZkMGD+jmgVogTF+LjXb9TxDAAqkSYRxYH7w28f1 nDHijFjY5qvNAqsDbCytmfLsxq0VdeXJdMpzgQIAGmwLbUFkQAMIS1iW0U2ACCDAUHOsFSAiGXIF WAG0kITW2lUegBECjQwGLChO2Cd2j0/9yTdOH9ydLzXDMAzzeZNx1QOvbnj94/Ld1U5Vg3FcsoSr tAYhwQoIIYQAAGNICwGaBAECWIAIBEgGSSNKDRoQQAJoAxkFygRk0LV0PCgHdAl/b2iPeVf/K8dv scA6lIr6zOTV77/5t8Zkg1PXkHE1giXABggYsAEcAEAJ6Oc8llKAQEUKRBjIACkEtFAYsLQiMADa BUAgARIiUWtgl8gPhvQc/e2Bx/WKcW1jGIZh/uk89trW/9qwZ3tVak+t15gxgAIEgPEgYBDRkpKI lNaANsgDQfQCjAGDICwERCIAMBAD7YFxATQax0YqyI91Kyocf2b3a39wPH7tbea/jgKLAKY+s/5/ NlWXVDU2ZDwgDca1hA2CQBJK0AK0AWMQQFgYNOABakMKEFGEyATAJQy6ggwpBcozmgClCEbDscSp RY1nH9vz7qtOZy3PMAzDHP2UltdPWv3+tr1VW2sjnpMBlUGBUqCQkoQgIq1tGUCDyhgXUALYQDZQ ALDeQgEA5E8makNEEoWnECRYArvnBYf2TCy4+rQT+hWwwPrK8ruNn817ZXNpef1nTWScNAgSAZsQ CBGEaF7dKprNE8AQgA2EAiRSkybZrOKVBu1J7QlSHgUCtl0YDw/skT/m231HnN2P9RTDMAzzZae+ yR37zIZ3S2s+q2lyHA+MkQCAUgsBliUEGnKRlBSGyCaBxhggQmER+JkWASyFJNHTQgsi0p4GiSIa Gxr3hh3b89Hrz/yaBMt/ZQVWxtW3rnjnrb9V7a5zGx0XjEEhLRnwAi6gBJRgEASCn2gTAYxBIYAE EhlNQlgAYAwIbRvwQDuAXtjCbuHwgO7djuvfa/mo4/k5ZBiGYb7aOK665NEte/aW7Suvasi4rvGt hAIEQhAIIQiNATIASIQkEJEsZYwBQj/VGyABEBiFKiTIGFICsEssNLhb/LYLj//xWX1ZYH0JePGv O5f8fsu2/am9SVegMIZAIlgaUAkwRtgAFmSCYBkABaRRSgkIRoIGFQyAdkBrIQgMGaWBBNjBfnG3 X1H+qHMHXfPtgfykMQzDMF9nGtLe+JVr391e/VllXb0KAigADywCCSAFEIIhMCEAKaQEA8YYEAiC gAxohaAFuSgtRRZ4BFqhFAER6t8l/I1ugV/dcl4i+tUx0P5yCyxDdM3St7fsqi6tSNantRGWsC1A SSBQZoywAANACMYIFERAGgLCEBoCRWiQwBggTRIkeGkCgdIqjIcHFEYuPLnb1MuG8awfwzAMw2Sj KeNdv/SttbvqdtdkXC0kCiBtybAHHtgeSGWMERSQJiTJytgIqH1vbQAAMsK4ATDKEKHUngEDgKZr LDC0d/6YHwy94ox+LLC+UHZXNV2//N3N++r2pVzteALBoAQrKCybiEg5AMayhNISCaQwQBqNAQAS FqDUQpEm0AAAoJVAyssLFhbk/eS4ojkjTmMXNYZhGIbpHO9tq7rv+Q//UpNsqE25jUqKEEhLCQOW AZvQtaQwwmgiQ0KAtDQhGQKpAABAgLSBBHgZUB5IsHQoZlOvhDxzUNfHbj7nS7cs8cshsH775tap b+wu319dl3SIbBASJAgLURgDEo0mIkIAlCAkEAGRlKC1BgMgbQAB2gPlARrQdiQo+8TDJ/aML7x+ eO+iKD8SDMMwDHPEeeJP21esKS3d31CZco0CkKrZ+kEKMASgQQAIACUBQJAC0r7jtiEBQhqNIAAA UCnhZkISexUV9erZ45XxJ8XCX4KZxKNUYBHBnb9Z98oHu3dXpNKOIcJAMOxRWkgSljGGgCwBATC2 Z1sgCMgBowARQQqjgYzWHoAAjaBJIBXHQ0N6JX565oAbvj+YKz3DMAzDfJF4Sv/yiXfWlVZtL2+s cwHQBiSURgBIJC0sLYJABEAgfAdvtMABAG0MIiKiIU3KAwDwjLTsbrHgcV0Ts6885ZyhR6lx91Ek sBrS3nXL3vzzZ43J2kYnpQCDICwIINgCUIPjoGULaWuDYDQYAmEARUBnBJAB8kgQWaA1KDcAFAgm +hdFzhucP/+60wM2Z6FhGIZhmKOFjdurpqxe//H+pj1JD5QDQoJlgfAQlEAisECGDLmAEgiBDKBA JGEMGKJgxLgeeIQEaDSRk4gHe/TsOveCAT864yhajvZPFlj1Tc5lD7/18Z5kZaOjDIA2ECIgkDKE iEopEISCiJSNUhMYEoAShQDywHgCSXshMC4YZVlWUTw0qFv+PZedfM7Qrlx9GYZhGOboxxiatWr9 q5+Ul1alGhzXz00tZMBYCqQEkkACUAAZMCQFkHGEtBQBAIKUoBUoT5LWKgQS4yHZt0voBycUPXjN 6f/coK1/gsDavKv+9ifef6cik6yrNdqTtkRhGSlIBP4R7EYAAIIEIgIIYwwJCQBgXCSDBEYpAGGH IoPyzPBBvR678YwAJ0tmGIZhmC85H++sGf/shk8/q96TInAdECAtCwAIBFg2ERJqABSGBDQrKANE iGR7YAA8g5qEJtIqEg4WFXW5+Nj4Qzee9cXHyH9BAmt9SfXE1Rs37a2ranIJBZAGREAJ0gIC0BoE WYKAlIYgEQEI8FPNGAWGQJCddkAIAyIRDh7TLXLF6X0m/vgkrogMwzAM81VFGxqz/C9vba8trUx7 rgGBAo0JIhgDiCglAJBRIBAQpBIgpCYAFCD85CvalsIzHhgKCtm3IHr2cd1XjPkX8YXksvscBdb6 7dV3rXx3w+6GZFPKMSRCQbIEIYEEIo1GgpAEAoAApUAgo0grCWFA1ESgNRgN5AQsmRcLndY7b/KP T/nW0RrLxjAMwzDM58qDr254+b2SzRXQmM54yoAVAksAEqACMkEVM2gMuhoVSkBEowE8LYVs9hkg bRxXaJUfChQl8r93YmLR9ed+fmLrCAus97ftv+s3Gzbvq9/f5BgCQAIRBQBEADRkzN/T1JAlHaUB jADLBhSgFBgDlgCnDoQlpdUzL3bmgO5P3fSvkZDFtYphGIZhmAOsK6mZuHLD5rLqqoY0Iko0nmWB QLQtAgBNQCCELQCU0YAE/hwhCTIAGgEEuBkUFLGxb7fYD04qnn/NEXYXPzICq7K2cdCtr6W054E/ uycAERGFZWmTBiEBBBgAkEJYQGQ8DwSAEGC0IGOUC0rFIuHCLvn/dkxs0U1nS8Em6gzDMAzDtM3O itQvHn3nvcpUsr7RdTwQAZACLN9GS9soFQEZ8D0ghJAIBrQSxkLyiIwGYRwPbJlvy275kW0LfngU CSxPmcDVL4NNYCOQthCkAE8ZQwbsKBgFRkkEBENaE5EQQjmESGEL+heGLxrWa+7IM7iKMAzDMAxz OGRcfe3SD9btqN1VXetpBySiCAAaKaWUQmmjSQNKEBYQgskIJCMkYBBQQmMyHA2lfnXpETmSIzP7 ZlsiGqxziACDCoRySaMl0LaFsNw6RdJDSwOC0qDdLrFA9y6xX54/8KYLTuCqwDAMwzDMkSIUkM/d err/d8rRk59c93xpZV11Mp10FViWbQdsNFIRZLRIACGRAU+DbQQYpPQJvbodqSM5YuFNPbv0/qym OqMEBIMgibRnTFob19MWgI4E4Jhu8evP+8YtFxzPt59hGIZhmM+bSFA+POZfHwYAAAIY//S6//qw bE+Vo9I2QARsJdCyrICHkoxl3FQC8dJ/PWIq5YgFuU/7zSf3/XadjnWHVKWNnmdENBg6tlvs+rO6 jv3x6XybGYZhGIY5GtCGbl36u/8sMVVVVZmMFRDoWB5Eiu3GKvfXVx51AgsAEhfdqwr6DipOnD+k 64JrOKaKYRiGYZijGqXNDcvX/qVk96d7m/pYzu5VNx6NAouIvninVOYLY9q0abFYLBaLNTQ0BINB RHQcJxAIZDKZUCiUTCZnzJhxSJGmxsY5d989d+7c3HuePHnK7Nkzbdtu+VU6lVq2fDkAOI4jhAgG g8YYIUQmk0mlUrNnz+706dx33zwhhG3biK08Bclk3cyZMw/5cObMmYlEAhHT6XTv3r1HjhzZZoWv q6t78smnXdc1RiFiPB53XZeIXNdtbGy8++67Wxa544477r///vafyB133Dlv3n3tfPSWLl1eUlJS XV3tum48Hs/Lyzv//G9deOEFue/ORf/+b2d986wc28yde39RUdHo0aMOv5pNvO2Ohx5s7+mvX7/h z39e0/wuQ3Qcx7+bwWCwrq5u1qwZ2QpOnz4zPz8/GAw4jjts2LBzzvmmEB1IBVFSUrJixYq6urpM JiOEiEQixcXFkydP7tCZOo4zY8aM8vJyrXU8Hj/33HOvuOKKHNvPnj07Hk8Qked5gYDVv3//iy++ uP0/N378xAULHurcTVm6dPmOHTtqamq09owx3bt3HzZsWO6jnTv3fr+Oua4bCASIyL/a9fX1N900 pkePzjgaTpkyZeqUKeFIpHPP+5133tGex2TevHm2HXRdFwDi8ehVV12Vn5/P73+mExxJiylWV19h iOjjjz+2bduyLP9GSyl9oYOIWmutdctSDz700Mcff5x7z40NDRs3bnzsscfGjh3b8tv/fOWVt99+ OxgMWpbluq4QQmsthBBCJJPJurq6Tr/7Nm7cGAwGM5mMZVlEdEBj+S10fX1tSUnJwIH/J2/opk2b bNv2t1y/fv1LL70Uj8evuPzyCy68MNuv/Mdzv3n77bdt27ZtmclkpJR+cSFEY2Oj1lpKeUgRIcTP fvazZ555pj1nsWvnrk8++eSll/7zJz/5ce4tp0+fvnXrVmMgFot1797dsqy6urqysrLHH39i1apn L7zw/40cObLVgps3b3YcJ7fAWrduXTgcPiICa/v27eXl+9vZAL/wwotbtmyJxWL+tQUArXUgEDDG pNPp7Bdt5+bNm0OhkOd5iPjOO+8sXrw4Pz9/2tQp/fr3y/2La9euXbJkSTKZDAaDhYWFRUVFxpj6 +vqPPvroRz/60YABAxYuXNg+WXxHaWmpbdvdunULhUI1NTUvvPDCmjVrli1blq3Itm3bAIQQwnEc yxJ/+ctfXnjhhaKioocffrg9v7hjx45dO3e1eYKHMHXq1O3bt7uuG48nioqKEMkYs3fv3l27dr36 6qvDhg2bMGFCtioRiUQcx/GXjfsfep5HRIsXP3LPPXM6WjFqqqs/+uijZ5555sYxYzpRrzZt2jR1 6vT2/O7mzZs9T0splVJae2+88UY0Gh02bNj48eO5IWD+aQKL+QqDiC+//PLBnbyPPvroggsuGDFi RI5SPbp3LygoyL1nKa14PF5cXNzqt8FgMBAI3HbbbcOGDTuyZySESCQSzzzzVPuLSCn79+9/7733 Hmhrly5duuLxx3fv3p3tpW/bdjAYHDXq59/97nfaf6kzmczYsWOXLFnSnu0jkUiP7rmWvRhjRo0a VVdXN3jw4JZjY9u2bXvggYdeeOGFbAIrHo+HQqHcxxCLxSKdGlc4VAXOmJWXlzfSszfAAAAXv0lE QVRz1uzly9p17vF4PB6Pz5gx7RApnJsePXtKKc85++wbx9zgf7Jy5arf//4Pd0y6c9nSR7oUFmYr OGHChNLS0qKionHjxp133nktRz7Wrl175ZVXTpgwYfjw4TkOYOHChbt27erZs+fixYsP/vDtt98e PXr0ihUrsnVyunXrunDhfP9frfXEiRMrKirGjBmzfPny3Kc8adLkgoKCh+YvWLRoYfsv1LXXXtvU 1NS3b98HH3zwkP5zWVnZ7Nmz16xZk01gIWKPHj3mzbvvSD2weYlEMBiMRKOdKLt27QeWZe3evbud ncmCgoIlS5pvjVJqwoQJf/3rXzOZTEcHKZmvOZwgmekMxcXF6XT68ssvz71ZKp1uampqowpKQUSN jY3ZxIHneUdcXfkCq9VJyRx4nhePxw/8O3z48CeffLKgoOCPf/pT7lLnn/+t9v+KbQfj8URDQ9NN N41tj7pSShUWFebY5sorr3JdNW/evFZnHo877rgVKx47/visC2f8uZLcaK2NMYd/U0pLS6WUTU1N 7QxdSKVS6XS6Q+oKANLptOu6l1760wOfXH31yJUrn7Zt+/Y77shW6pZbbtm7d++QIUNWrFjRUl0B wKRJk1544YVwOHz//fd/8sknOQ7gww8/jEajB6srALj11luHDRuWTV35DX8gEDhY7i9cuPD444+v rq5eu3Zt7lOurKwkoqqqqvZfpZEjf6aUGTFixEMPPdRydqJXr16PPvroGWeckeNoo50SQznqmF/h O1F25cpVxhhEXLVqVXsE1sHzxZZlLVq0qLCw8MMPP+Q3P8MCi/nciUQigUAgk30WxicQCLQpYoQQ xpiWM2UHvm118vHw8Wc2O1rEcZxDPuzbt2+rn/uEI5GOig+llFIqGo3W1taOG9fGrESyISmlTCYb sm1w3XXXB4PBxx5ddtxxx+XYT444ufZM/du2ffgCa8WKJ4ioW7duRDR16tT2FInFYp2ITAgGAkJA bV3tIZ/369cnmUy2WmTBggVlZWXHHHPMffe1MSTzxBNPRCKRWbNm5VZ4RUVFLT/PPUASDAY9zzvk w+nTp0spn3/++RwFlyxZkslkunbtGggEZsyY1Z5LdNNNYz3PmzfvvtxhXjkOuBPPV5tPny+pO1qQ iCoqKgoLC6PR6Jo1a9pTmVt2Ki655BLHcSorKvjlz7DAYj5fPM/LZDLBtmaO2tP4uY7ra6xWv/VD 2o+Wp0WIlmf0i7FjHcdJ1tdnUUueHzHWoR8yxixZsvjkk08uKyubOPH2HFvmxfOIyMsyyPTo8sca GhqGDBkSO2jgrRPtU5vHb4yxrMONN3jnnXcSicT98+4rLi7euXNnO8eiOiHshJTGmLwW16Rvnz7+ +bYs8sEHHxQUFByYHc7Nww8/bFlWjpAdRGwpldrz0LUu4sPhbAPAPmvXri0qKnrggXkFBQWffvpp mz/03HPPVVZWnnDCCb169TqyD8vhoJXy1U9HC952220AsGDBQ9/73vdqa2ubcl4rANBat6wD3zzr LMuy9rPAYlhgMZ83RGhZgTZ7qI7jIco2X8Q5mnBE2eYeOocxBjrYACBKokOLvPve+1LauX8IATty YMrzHCHE5MmT+vbtvXv3zkmTJmVtDIzJ0Yy99/770Wh48uRJh3OhpJRt3mgiOswRrJKSkvr62nPP +SYA3DV5kuOqBQsXtV0PAUzH10ErzwMQbgu9sr+iqlVZMH/+fM/T09o3qAYA+fn53XsU799fmW2D RKKgsrK6sqKyE0M4rYl4lW0AGABef+31pqb0JZdcDAC33TbBdTOPthWw9Yc//DEUCk2fPvUwny88 ol0jaVkAohPV7LPPPuvbtzcA/OQnPw4Ew3feNbUTl/r9tWu11gP69+eXP8MCizkqaNUBocVwgsix TTgUFEJ0orvfHt3QnuiiQ2REyzfv//zP723b7tqt9TDzaDQmhEilmtr/K+Fw+OCmvU+fPiUlJXfe eWcnBjySyeRJJ510mBfKX2qXexvbtpVSh/MrixYtCofD/sr//Pz8eDzezpCXzgXlSCkzmcwhH5aV lQWDwZYbb9u2LRaL9etI4zp96hTHcVaseKLVb5csWay1vu32O+bNe6BDT1PLi7xu3bpUKjVkyJBs pV79r/+ORCJ+0FivXr0ikcjaDz7I/UONjY0DBgw4zGrjG7j8019B8+bNc133wMRu3759y8vL2+zy tezv/eY3v7FtOxqL8VudaT+8ipD5HCks7BIIBCZMuC0WiyGS3zz4rbUf6CClXV9ff7CkOISa2rpg MDh+/ER/Ub1lCd8HyPc7aOcC9WyvUc/zxo0b7w9a+I4J/s6HDDl+7NibW23hDo4yBoBp02bs378/ R5B1XW1tOBy+c/IU25au64bDYX80iIiUUo888kjLIodMe82fP/+Xv/zljh07Zs2a1dJpLAfPPfcf QohWzS86RDQarampmTp1OgBIiX5ImWVZ/okgSt/ZK8cgStujHVqXlZUdvJThjNNP/+/XXqusqOza rWsbrzDLuunmX0TCQd+/wx/R8e/pggULspVqOSZ3++2T6urqLrro31pu3NDQ0L17zw6dUZfCLpZl bd68OZu8e+qpJ8aO/eX7779/zTU/HzhwYHuGi4jokCelprr6kUcekVLefPPN2cRxeXn56af/I5fG mWee+fvf/37Xzp3Z9OJrr71ujBl93eE6biBiTU2Nv8bQGOPXEK21UmrhwoWdmOnrHFu2bOnWrduB ynnv3XMuu+LKu6ZMuzenX8PBh2e0njBxYk1NzcqVK/mVzrDAYo4WUk0pIqqpqSkvL0ckfyrwwHiV UioUivh+WlkbqoJ837bAdV2llJQIf4+fPfwQWkRMpVIHjscPqNdaV2SZu5FS7tmzZ+HCRclksqmp affu3UqpXr165TDX8SewXNfVGl3X9TzPb/6FEDnGzw6RcYsXLx47duymTZumT5/efm/VHTt2AkCr QzIdUz/GOI6zZ88eItLaOyBipJRSSmNACCGlbNPKIQfTps8Uwjo4YvrGG69f8+abc+65d9HDC3If m38w9fUZvwn3P0HE3KNuoVBo+fLHotFoXl5eWVnZvn37HMcZNGhQq14VWusePXp09KTC4XCOWxwM BleseOyll156/fXXP/xww4gRI4899tjZs2fmrq7JZHLmzNlCiHS6qba2trKyMhQKLVqUdS518uQp oVBo0qR/hPHdfPPNa9a89fCiR+bPf7DVInt27yGijtpltXrRfIcwX1chomVZfuxmdXV1J65nJ3ju uecaGxsP7mMIKbp27frZZ5/lLlhXV3fNNT83xnie4/vWJhKJL0wUMiywGKYdL1ljiGjZ0iXhSNYx qrVrP5g7d16OnTiOs2zpI4cTpp2tAbBte+mSxR0SZI7jfPDBB34Deeyxx44Zc0PuQOAuXbp4njd1 6l25F/Edoq5arklcsmTJmDFjtmzZsnDhwltvvfWLvImO4xQXF+c2NBo1avTh6N2tW7e2HAUcMGDA Rx991ObwVTqdXvGrRzsRYl9fX19WVuZLw2OPPXbmzOlHfDlFm1OrF1988cUXX9zY0HDr+IklJSVX XnnVs8+uzHYYvigvLS11XdeyRCgUOumkk1rmGziY7du3t6x4xxxzzLZt23IPlR2R0y8qKrrv3rv/ ie+f3/3ud6FQ6BBPsp/85OIlS5auWrUqm/Gb1joSiZ16yil9+/ZJpVObNm2qra2tqam54oorTj31 1E5M1jNfWzgGi/l88Twvh7oCgFNPPSXHCz2dcZRSR1xd+a1IR7ukxpjBgwc/8sgi39F+zpxZbS6z qqmpUUp1yKgp28LJ5cuXFxUVvfnmm0uXLm3PfgYM6E9E6Y4va29Jmxeq1YVX7WTmzNnBYHDG9GmH fH73nFmJROL223MtogwGg67rdkJdGWN+/OMfzZgxzXXdRCIxe/bMHOpKCLFv376O/kQ6nT5kJDIb sXh8xYrHzjrrzHA4PHLkz3Js6VvjPvfc6lWrVq1YsSK3upoyZUoikZgz51BfhtmzZ4bD4buyxHoX Fxcj4q6duw6zziilDmdQ8/Cpqa7JZNxzzj73kM+/993vFBQU/O///m/uCn/jmBsuuPCCSy65ZPr0 6QsWLHj66aeLi4vffffdV199ld/qTDvhESzmc8RPbtOGAnO93Nv4oVFHQyImf5AmPz9/8ODBGzZs WLp0+c03t5G1QyB2dFwkx5kuW7Zs9OjRb7zxxoD+/XPk5/G5/PLLXnrp5YcXLTrMPncOE42D71Gn 979r165QKHTvfXP9vHW2bafTaWlZfqRXWVnZERExLXX/eeeeG41FBwwYsGvXrvXrN5x22qlZBVAs VldX16H9V1ZUKqVOGDq0/UXGjr15yZKlf/7zmmz1qqML6Hbu3BkIhObMuScajfoJQ/0QQ9d1g8Fg tgt70Q//feWqVSsef6KlMutoB+Yw1z0cJnffcy8ilpSW+nP6WutQKJRxnHA4bFlWqqkhR6KtVvMs LViwYPTo0c8///xFF13E73amXS9PvgTM50dePN7mAkDLzqXyQ6HgEcxHfoiO6eieichfGDV58qSC goI1a9a0OS8WDIX8AJSOyrhsrFixorCw8MmnnnrppZdy7ycQCOTl5W3ZsuXwr1WbF6rTHg2vvvJf flxaWVnZBx98sH379g0bNpSUlGzbtm3r1q2+236O7H6is26WiOjbms+de69lWfPn54r0GjJkSGNj Y0lJSfv3f899c0Oh0Kjrft6hoxo79mbLsnbs2NG5u3Awq1atsm1ba11aWrpx48ZPP/10w4YNH3/8 8datW3fu3ElEWutsixyj0Wi2Y2g/tm3/cx3s9u7dG4vF9u7d++67727atKm0tPTDDz/89NNP169f 70vM6dOnZ+tRZBuyLS4uzmYpzDCttG58CZhOkE6l2owjBgDPcxDbaBWUp3Lsx3EyxqjPY/gKEUUH d3vwVNSjjy678sqrrrvu+qeeeiKn8lAdbWUQZW5jrV/96ldXX331888/f9655/onkpfIa3XLk08+ 6d133505c2buuaQ2xVN75uA615q+/J8vBYP2448/nm2D6667Lke+8E7cxH+c1N+V/QMP3D9+/ISb b/7F0qWPtLrxhAkT3nvv8nnz5j322GPt2XllRUX5vrJWvdrbcRnBGJVdxbZXyL7xxhtSyqeeynph r7nmmnfffafV/NznnH3W7//wh2nTps2ZM6fT1UYpBUe6a2SMaqeT+113TTXG3HvP3dlWoU6cODFb akJjTLYOQzgc9pfpHA0D6szRD49gMZ0hv6AAANy2OnPpTKbNttmyLaVUtnEIS9pHJMlda9LN6ehb 0nXdgyekvvOd72Qymdtvn5RbxnV0wWN7BipWrlwphJgwceKsWbNDoVB1dW2rm40fPz4ajZaWltZU Vx+OEm3z+KWUnZgPqqyoSCaTgwYNyrFNv379GhoasuXa6/QaSUQMh5pDA3v06D5o0KCqqqocrlTn nntudXX1uHHj2rPzOydPJqJWPTgAYOTIkdnCq40xDQ0NvXv3bvXbQCDQThW7bdu2pqamwYMH59hm 6NChtbW1rU59jrruukgksm3btnXr1h1W63KkR7CCwWCbyeN9du7c2b179xweH9OmTQOAVn1PcnjQ 79u3z+S09mUYFljM4dLU1EhEdlvhL4FA227v/ghWjneWbQc/j1MIBAIdnSI8xJ1y9OhRhYWFe/fu Xb9+Qw61ZFlWR0OU2mOsumrVKqWU4zi2bXteVjuAxx9/3PO8MTfdlLux9P2KsjWT7bDsdzrR6sye M8e27dwhYtOnTxdCPPPMM61+m0wmO6G/PaWIKJ35R5zN7Nkzo9HoRx99ZLKc6dixY/v06bN///7c QfdEdO21o5LJxhxJdXr37q2UevHFF1t+deutExKJRLZVon74VHtOcPHixbZt50gAAACTJk0KBAJT pkxp9dsnnnjCsqwHH3wwd3bkbMXhSJj7H4JWqp3OpXPnznVd98Ybr8/VRczPz8/Pb3U1ZbblL2vW rKmpqSksLOT3P8MCi/kciUZj7emhBgKBNkew/EzP2bxGXVcJtNau/eDIV33R4bQbiOgbcR1gyZLF RPqhhx7MoTyklLmXLLU8sHYGbq9cuVIplclkEolEjmNevXp1OByeM2fOhAkTWmrKNWveuuaan+fI /YeIba4ibE9W75aUl5f37Nm2gWfPnj0rKipaFXm2bQeDwU8++aRDvxsOh6XEQ1rrJ55YkU43XX/D DdlKLVy4sE+fPqWlpVdffXWrAXAzZ86+7LIrXNcdf+u4HOtG586dK4R48cUXD9Eu48aN37t3b58+ fbJJVSlle+ZqtdYVFRXtSSPYo0ePysqs6XpWr14dCARefvnlcePGtVT8a9euveGGGzZt2pStuGVZ Hc2UkBs7EAgEAjl+8QCbN2+Ox6Mnnnhi7s3+ZdgwpdTq1atb1Vj/pxOo1F133bV06VKlVDvX8DIM cAwW0znKy8sbGxsbkg1dCrvk2KyysrI+Sxbkg0mn0/v3788mUFzXnT9/gWVZjuP4oylSSiKdSqV+ vXp1px0cUqlUvINl0+l0yzbj6pEjn3zqqRtvvPHRRx/NNvCwYsWKZ555JpPJHAjgIKJUKvXyyy+3 HNxKpVINDQ3tFHxPP/3kpZdeXlVZ2dZmT8+aNWvLli2XXnp5MBjs3r27bdu1tbX19fXGmEgkctll l2UrXl9f39TURqqfxsbGjk4R3nrrrUqpu9sR5fPAAw9ccskl48ePb+mo6evLefMe8K+tb1QWDoeV Uq7rvvzyb1uvvfv2pdPpmpqag2UQIp599tlvvfXWhAkT5s+fn+1I1q5du2zZspUrV65evbqoqCga jXueV19f7zhOJpPp16/fwoXz2zyj1atXjxw58pVXXvnjH/8Yj8eFEHv3lhtjBg0adO+992Qr1dTU FI1G29z5hAkTHMe5//77274F48aNnzDhlltuyWZV+vTTT8+YMWPbtm2XXXZZJBIpLCz0E+BUV1en 0+lEIvH9738/2849z9u1a9fll195QB0qpfylhUOHDr3nng5HdzmZDABs3br1qquu8r05jDH+2yCT yZxyyimzZs3yex3JZPKMM85oc4c3jhmz5s03X3nllREjRhyirqqqqkaO/Jnrun4IqZ86ori4+HBS RzAssBimXdxww+j6+vrc6goAbrvttjaDUqOx6Kmnnjrmxhtb/fanl15cW1cNAI7jImIkHFRaW1Km M5lMJnM4/ljDhg3r27dvR4tce83Vh3x4wYUX7tu3r3THjlZDX6+84grXdV3X9UM3fCcCf8uqqqpW pw5Hjbr2t799uf2DavPm3ffOO39tc0s/3OTZZ3+9cePG6upqpVQ8Hh84cOCIEVfk7uufc845F1/8 o9w7P/PMM4uKOjZ1UlBQMHjw4HA7MglalnXhBRfUtabUrx993X+/9rofGyeFkJblOJlwKOx5XlP2 itevf/9TTjnlEP9JX5qEQqFsWt9n+PDhw4cPr6yoeGTJkv3799fU1Egp8/Ly+vfvP2FCBwxgV61a tXDhwpKSEj8z0oABA+699+7cU8nf+MY3TjvttDb3XFxcfNJJJ7VnxrZf//6nn3567olyX7W8/tpr f/zTn/wEBlLKAQMGjBgxIne1Of/8bwFAMBhynAyiAAAphDamvr7+ll/+ohMPbDQWO+WUUxKJhBTC H7xMNjTkxePpTMZxnGuvuebAE3HyySe305pk1KhRb7311iEffvOsswBEUyoVjUSU9lzXvfLKK78Y 63nmKwZ+TmvgGYZhGIZhvrZwDBbDMAzDMAwLLIZhGIZhGBZYDMMwDMMwLLAYhmEYhmEYFlgMwzAM wzAssBiGYRiGYVhgMQzDMAzDMCywGIZhGIZhWGAxDMMwDMOwwGIYhmEYhmFYYDEMwzAMw7DAYhiG YRiGYYHFMAzDMAzDAothGIZhGIZhgcUwDMMwDMMCi2EYhmEYhgUWwzAMwzAMwwKLYRiGYRiGBRbD MAzDMAwLLIZhGIZhGIYFFsMwDMMwDAsshmEYhmEYFlgMwzAMwzAMCyyGYRiGYRgWWAzDMAzDMCyw GIZhGIZhWGAxDMMwDMMwLLAYhmEYhmFYYDEMwzAMw3wN+P/VCk9wJKj0lwAAAABJRU5ErkJggg== "
       id="image4297"
       x="0"
       y="0" />
  </g>
  <g
     inkscape:groupmode="layer"
     id="layer1"
     inkscape:label="text"
     style="display:inline"
     transform="translate(-7.3820728,-8.6201451)">
    <path
       style="color:#000000;font-style:normal;font-variant:normal;font-weight:normal;font-stretch:normal;font-size:medium;line-height:normal;font-family:sans-serif;text-indent:0;text-align:start;text-decoration:none;text-decoration-line:none;text-decoration-style:solid;text-decoration-color:#000000;letter-spacing:normal;word-spacing:normal;text-transform:none;writing-mode:lr-tb;direction:ltr;baseline-shift:baseline;text-anchor:start;white-space:normal;clip-rule:nonzero;display:inline;overflow:visible;visibility:visible;opacity:1;isolation:auto;mix-blend-mode:normal;color-interpolation:sRGB;color-interpolation-filters:linearRGB;solid-color:#000000;solid-opacity:1;fill:#000000;fill-opacity:1;fill-rule:evenodd;stroke:none;stroke-width:2.1;stroke-linecap:butt;stroke-linejoin:miter;stroke-miterlimit:4;stroke-dasharray:none;stroke-dashoffset:0;stroke-opacity:1;color-rendering:auto;image-rendering:auto;shape-rendering:auto;text-rendering:auto;enable-background:accumulate"
       d="M 89.602568,8.6201466 V 25.707031 h 2.801951 V 13.197266 l 17.107921,13.042465 3e-5,-17.0630287 h -2.55306 l 0.10036,12.5380297 z"
       id="path5697"
       inkscape:connector-curvature="0"
       sodipodi:nodetypes="ccccccccc" />
    <path
       style="color:#000000;font-style:normal;font-variant:normal;font-weight:normal;font-stretch:normal;font-size:medium;line-height:normal;font-family:sans-serif;text-indent:0;text-align:start;text-decoration:none;text-decoration-line:none;text-decoration-style:solid;text-decoration-color:#000000;letter-spacing:normal;word-spacing:normal;text-transform:none;writing-mode:lr-tb;direction:ltr;baseline-shift:baseline;text-anchor:start;white-space:normal;clip-rule:nonzero;display:inline;overflow:visible;visibility:visible;opacity:1;isolation:auto;mix-blend-mode:normal;color-interpolation:sRGB;color-interpolation-filters:linearRGB;solid-color:#000000;solid-opacity:1;fill:#000000;fill-opacity:1;fill-rule:evenodd;stroke:none;stroke-width:2;stroke-linecap:butt;stroke-linejoin:miter;stroke-miterlimit:4;stroke-dasharray:none;stroke-dashoffset:0;stroke-opacity:1;color-rendering:auto;image-rendering:auto;shape-rendering:auto;text-rendering:auto;enable-background:accumulate"
       d="M 119.65274,9.1048547 V 25.954464 l 12.58749,-0.05017 v -2 h -9.83498 V 11.054685 h 8.73147 V 9.0546845 Z"
       id="path5699"
       inkscape:connector-curvature="0"
       sodipodi:nodetypes="ccccccccc" />
    <path
       style="color:#000000;font-style:normal;font-variant:normal;font-weight:normal;font-stretch:normal;font-size:medium;line-height:normal;font-family:sans-serif;text-indent:0;text-align:start;text-decoration:none;text-decoration-line:none;text-decoration-style:solid;text-decoration-color:#000000;letter-spacing:normal;word-spacing:normal;text-transform:none;writing-mode:lr-tb;direction:ltr;baseline-shift:baseline;text-anchor:start;white-space:normal;clip-rule:nonzero;display:inline;overflow:visible;visibility:visible;opacity:1;isolation:auto;mix-blend-mode:normal;color-interpolation:sRGB;color-interpolation-filters:linearRGB;solid-color:#000000;solid-opacity:1;fill:#000000;fill-opacity:1;fill-rule:evenodd;stroke:none;stroke-width:1px;stroke-linecap:butt;stroke-linejoin:miter;stroke-miterlimit:4;stroke-dasharray:none;stroke-dashoffset:0;stroke-opacity:1;color-rendering:auto;image-rendering:auto;shape-rendering:auto;text-rendering:auto;enable-background:accumulate"
       d="m 68.037427,8.7730867 c -2.9604,0.022041 -5.454779,0.5054593 -8.539344,2.2559503 -2.736767,1.553115 -3.940147,4.083098 -3.940147,6.37526 h 2.38347 c 0,-1.909755 1.085943,-3.593878 2.910156,-4.845703 1.824214,-1.251826 4.375027,-2.032042 7.154297,-2.052735 2.774432,-0.02066 5.320813,0.75875 7.144532,2.021485 1.823718,1.262734 2.912109,2.972329 2.912109,4.876953 h 2.454417 c 0,-2.287889 -0.913002,-4.545566 -4.266063,-6.529805 -2.2585,-1.3365117 -5.248189,-2.1234826 -8.213427,-2.1014053 z"
       id="path5713"
       inkscape:connector-curvature="0"
       sodipodi:nodetypes="ssccsssccss" />
    <use
       x="0"
       y="0"
       xlink:href="#path5713"
       id="use5715"
       transform="matrix(1,0,0,-1,0,34.810036)"
       width="100%"
       height="100%"
       style="fill:#000000;fill-opacity:1" />
    <path
       style="fill:#000000;fill-opacity:1;fill-rule:evenodd;stroke:#000000;stroke-width:2;stroke-linecap:butt;stroke-linejoin:miter;stroke-miterlimit:4;stroke-dasharray:none;stroke-opacity:1"
       d="m 121.56797,17.388987 h 8.76198"
       id="path5743"
       inkscape:connector-curvature="0" />
    <path
       style="color:#000000;font-style:normal;font-variant:normal;font-weight:normal;font-stretch:normal;font-size:medium;line-height:normal;font-family:sans-serif;text-indent:0;text-align:start;text-decoration:none;text-decoration-line:none;text-decoration-style:solid;text-decoration-color:#000000;letter-spacing:normal;word-spacing:normal;text-transform:none;writing-mode:lr-tb;direction:ltr;baseline-shift:baseline;text-anchor:start;white-space:normal;clip-rule:nonzero;display:inline;overflow:visible;visibility:visible;opacity:1;isolation:auto;mix-blend-mode:normal;color-interpolation:sRGB;color-interpolation-filters:linearRGB;solid-color:#000000;solid-opacity:1;fill:#000000;fill-opacity:1;fill-rule:evenodd;stroke:none;stroke-width:2;stroke-linecap:butt;stroke-linejoin:miter;stroke-miterlimit:4;stroke-dasharray:none;stroke-dashoffset:0;stroke-opacity:1;color-rendering:auto;image-rendering:auto;shape-rendering:auto;text-rendering:auto;enable-background:accumulate"
       d="m 142.9668,9.3574219 -1.68929,0.00781 V 25.75195 l 2.79682,0.01172 v -6.337638 c 1.84444,-0.05678 3.84067,-0.122874 5.49099,-0.708718 1.04496,-0.370947 2.04088,-0.767708 2.77087,-1.484894 0.72999,-0.717187 1.33401,-1.492418 1.27353,-2.93276 -0.0635,-1.510965 -0.61552,-1.946803 -1.15657,-2.676726 -0.54104,-0.729925 -1.57099,-1.291411 -2.47935,-1.6419639 -1.81673,-0.7011084 -3.96379,-0.6533613 -7.00697,-0.6235507 z m 1.10753,1.5229961 c 2.41598,0.02856 4.12397,0.238282 5.31056,0.835749 0.63421,0.319334 1.20042,0.894742 1.46277,1.248677 0.26235,0.353934 0.41015,0.735001 0.41015,1.404911 0,0.560412 -0.24361,1.213567 -0.67517,1.637555 -0.43155,0.423987 -1.04337,1.022137 -1.90592,1.32833 -1.3402,0.475758 -2.93587,0.723016 -4.60239,0.785958 z"
       id="path5745"
       inkscape:connector-curvature="0"
       sodipodi:nodetypes="cccccssssscccssssscc" />
    <path
       style="color:#000000;font-style:normal;font-variant:normal;font-weight:normal;font-stretch:normal;font-size:medium;line-height:normal;font-family:sans-serif;text-indent:0;text-align:start;text-decoration:none;text-decoration-line:none;text-decoration-style:solid;text-decoration-color:#000000;letter-spacing:normal;word-spacing:normal;text-transform:none;writing-mode:lr-tb;direction:ltr;baseline-shift:baseline;text-anchor:start;white-space:normal;clip-rule:nonzero;display:inline;overflow:visible;visibility:visible;opacity:1;isolation:auto;mix-blend-mode:normal;color-interpolation:sRGB;color-interpolation-filters:linearRGB;solid-color:#000000;solid-opacity:1;fill:#000000;fill-opacity:1;fill-rule:evenodd;stroke:none;stroke-width:2;stroke-linecap:butt;stroke-linejoin:miter;stroke-miterlimit:4;stroke-dasharray:none;stroke-dashoffset:0;stroke-opacity:1;color-rendering:auto;image-rendering:auto;shape-rendering:auto;text-rendering:auto;enable-background:accumulate"
       d="m 145.97064,18.412866 -1.891,0.90102 7.4993,6.441785 3.28409,0.03648 z"
       id="path5762"
       inkscape:connector-curvature="0"
       sodipodi:nodetypes="ccccc" />
    <path
       style="color:#000000;font-style:normal;font-variant:normal;font-weight:normal;font-stretch:normal;font-size:medium;line-height:normal;font-family:sans-serif;text-indent:0;text-align:start;text-decoration:none;text-decoration-line:none;text-decoration-style:solid;text-decoration-color:#000000;letter-spacing:normal;word-spacing:normal;text-transform:none;writing-mode:lr-tb;direction:ltr;baseline-shift:baseline;text-anchor:start;white-space:normal;clip-rule:nonzero;display:inline;overflow:visible;visibility:visible;opacity:0.99;isolation:auto;mix-blend-mode:normal;color-interpolation:sRGB;color-interpolation-filters:linearRGB;solid-color:#000000;solid-opacity:1;fill:#000000;fill-opacity:1;fill-rule:evenodd;stroke:none;stroke-width:2;stroke-linecap:butt;stroke-linejoin:miter;stroke-miterlimit:4;stroke-dasharray:none;stroke-dashoffset:0;stroke-opacity:1;color-rendering:auto;image-rendering:auto;shape-rendering:auto;text-rendering:auto;enable-background:accumulate"
       d="M 172.65845,8.8144531 160.76717,25.86571 h 2.81206 l 9.10602,-13.525866 9.10602,13.525866 h 2.75845 z"
       id="path5766"
       inkscape:connector-curvature="0"
       sodipodi:nodetypes="ccccccc" />
    <path
       style="color:#000000;font-style:normal;font-variant:normal;font-weight:normal;font-stretch:normal;font-size:medium;line-height:normal;font-family:sans-serif;text-indent:0;text-align:start;text-decoration:none;text-decoration-line:none;text-decoration-style:solid;text-decoration-color:#000000;letter-spacing:normal;word-spacing:normal;text-transform:none;writing-mode:lr-tb;direction:ltr;baseline-shift:baseline;text-anchor:start;white-space:normal;clip-rule:nonzero;display:inline;overflow:visible;visibility:visible;opacity:1;isolation:auto;mix-blend-mode:normal;color-interpolation:sRGB;color-interpolation-filters:linearRGB;solid-color:#000000;solid-opacity:1;fill:#000000;fill-opacity:1;fill-rule:evenodd;stroke:none;stroke-width:2;stroke-linecap:butt;stroke-linejoin:miter;stroke-miterlimit:4;stroke-dasharray:none;stroke-dashoffset:0;stroke-opacity:1;color-rendering:auto;image-rendering:auto;shape-rendering:auto;text-rendering:auto;enable-background:accumulate"
       d="m 168.1234,17.959536 -0.51322,1.572314 h 10.00781 l -0.34215,-1.657851 z"
       id="path5770"
       inkscape:connector-curvature="0"
       sodipodi:nodetypes="ccccc" />
    <path
       style="color:#000000;font-style:normal;font-variant:normal;font-weight:normal;font-stretch:normal;font-size:medium;line-height:normal;font-family:sans-serif;text-indent:0;text-align:start;text-decoration:none;text-decoration-line:none;text-decoration-style:solid;text-decoration-color:#000000;letter-spacing:normal;word-spacing:normal;text-transform:none;writing-mode:lr-tb;direction:ltr;baseline-shift:baseline;text-anchor:start;white-space:normal;clip-rule:nonzero;display:inline;overflow:visible;visibility:visible;opacity:1;isolation:auto;mix-blend-mode:normal;color-interpolation:sRGB;color-interpolation-filters:linearRGB;solid-color:#000000;solid-opacity:1;fill:#0062ac;fill-opacity:1;fill-rule:evenodd;stroke:none;stroke-width:1px;stroke-linecap:butt;stroke-linejoin:miter;stroke-miterlimit:4;stroke-dasharray:none;stroke-dashoffset:0;stroke-opacity:1;color-rendering:auto;image-rendering:auto;shape-rendering:auto;text-rendering:auto;enable-background:accumulate"
       d="m 51.471507,32.44436 -1.005061,1.620144 138.787894,-0.02828 -1.07359,-1.589718 z"
       id="path5776"
       inkscape:connector-curvature="0"
       sodipodi:nodetypes="ccccc" />
    <path
       style="color:#000000;clip-rule:nonzero;display:inline;overflow:visible;visibility:visible;opacity:1;isolation:auto;mix-blend-mode:normal;color-interpolation:sRGB;color-interpolation-filters:linearRGB;solid-color:#000000;solid-opacity:1;fill:none;fill-opacity:1;fill-rule:evenodd;stroke:#0062ac;stroke-width:1.5;stroke-linecap:butt;stroke-linejoin:miter;stroke-miterlimit:4;stroke-dasharray:none;stroke-dashoffset:0;stroke-opacity:1;color-rendering:auto;image-rendering:auto;shape-rendering:auto;text-rendering:auto;enable-background:accumulate"
       d="M 7.5641528,52.489704 C 81.762555,33.920787 156.90544,33.718343 232.39415,52.568348"
       id="path5780"
       inkscape:connector-curvature="0"
       sodipodi:nodetypes="cc" />
    <text
       xml:space="preserve"
       style="font-style:normal;font-variant:normal;font-weight:normal;font-stretch:semi-condensed;line-height:0%;font-family:'DejaVu Sans';-inkscape-font-specification:'DejaVu Sans, Semi-Condensed';text-align:start;letter-spacing:0px;word-spacing:0px;writing-mode:lr-tb;text-anchor:start;fill:#646466;fill-opacity:1;stroke:none;stroke-width:1px;stroke-linecap:butt;stroke-linejoin:miter;stroke-opacity:1"
       x="50.427204"
       y="63.945774"
       id="text5782"
       transform="scale(1.0837752,0.92270054)"><tspan
         sodipodi:role="line"
         id="tspan5832"
         x="50.427204"
         y="63.945774"
         style="font-size:8.38177px;line-height:1.25">THE  FRENCH  AEROSPACE  LAB</tspan></text>
  </g>
</svg>
